EESchema Schematic File Version 2
LIBS:power
LIBS:device
LIBS:transistors
LIBS:conn
LIBS:linear
LIBS:regul
LIBS:74xx
LIBS:cmos4000
LIBS:adc-dac
LIBS:memory
LIBS:xilinx
LIBS:microcontrollers
LIBS:dsp
LIBS:microchip
LIBS:analog_switches
LIBS:motorola
LIBS:texas
LIBS:intel
LIBS:audio
LIBS:interface
LIBS:digital-audio
LIBS:philips
LIBS:display
LIBS:cypress
LIBS:siliconi
LIBS:opto
LIBS:atmel
LIBS:contrib
LIBS:valves
LIBS:Propeller
LIBS:dk_Logic-Translators-Level-Shifters
LIBS:dk_Logic-Buffers-Drivers-Receivers-Transceivers
LIBS:Connector_Generic_MountingPin
LIBS:Misc
LIBS:dk_Logic-Flip-Flops
LIBS:dk_Logic-Gates-and-Inverters
LIBS:dk_Logic-Multivibrators
LIBS:dk_Logic-Shift-Registers
LIBS:dk_Logic-Signal-Switches-Multiplexers-Decoders
LIBS:Logic_LevelTranslator
LIBS:SN74LVC4245APW
LIBS:propeller-cache
EELAYER 25 0
EELAYER END
$Descr A4 11693 8268
encoding utf-8
Sheet 1 1
Title "Propeller Parallel Port for WICE-4M"
Date ""
Rev "B"
Comp "JMOS and Forthnutter"
Comment1 ""
Comment2 ""
Comment3 ""
Comment4 ""
$EndDescr
$Comp
L DB25 J1
U 1 1 5CDEA7B0
P 1150 3650
F 0 "J1" H 1200 5000 50  0000 C CNN
F 1 "DB 25" H 1100 2300 50  0000 C CNN
F 2 "Connect:DB25FC" H 1150 3650 50  0001 C CNN
F 3 "" H 1150 3650 50  0000 C CNN
	1    1150 3650
	-1   0    0    1   
$EndComp
$Comp
L 32123 U1
U 1 1 5CDEE189
P 6100 2450
F 0 "U1" H 6150 2600 60  0000 C CNN
F 1 "32123" H 6250 2500 60  0000 C CNN
F 2 "Housings_DIP:DIP-40_W15.24mm_LongPads" H 6450 2600 60  0001 C CNN
F 3 "" H 6450 2600 60  0001 C CNN
	1    6100 2450
	1    0    0    -1  
$EndComp
$Comp
L GND #PWR32
U 1 1 5CFF9B70
P 8050 5500
F 0 "#PWR32" H 8050 5250 50  0001 C CNN
F 1 "GND" H 8050 5350 50  0000 C CNN
F 2 "" H 8050 5500 50  0000 C CNN
F 3 "" H 8050 5500 50  0000 C CNN
	1    8050 5500
	1    0    0    -1  
$EndComp
Wire Bus Line
	2700 1150 2700 7350
Entry Wire Line
	2600 2450 2700 2550
Entry Wire Line
	2600 2650 2700 2750
Wire Wire Line
	1600 2450 2600 2450
Wire Wire Line
	1600 2650 2600 2650
Text Label 2050 2450 0    60   ~ 0
/STROBE
Text Label 2350 2650 0    60   ~ 0
D0
Entry Wire Line
	2600 2850 2700 2950
Entry Wire Line
	2600 3050 2700 3150
Entry Wire Line
	2600 3250 2700 3350
Entry Wire Line
	2600 3450 2700 3550
Entry Wire Line
	2600 3650 2700 3750
Entry Wire Line
	2600 3850 2700 3950
Entry Wire Line
	2600 4050 2700 4150
Entry Wire Line
	2600 4250 2700 4350
Entry Wire Line
	2600 4450 2700 4550
Entry Wire Line
	2600 4650 2700 4750
Entry Wire Line
	2600 4850 2700 4950
Wire Wire Line
	1600 2850 2600 2850
Wire Wire Line
	1600 3050 2600 3050
Wire Wire Line
	1600 3250 2600 3250
Wire Wire Line
	1600 3450 2600 3450
Wire Wire Line
	1600 3650 2600 3650
Wire Wire Line
	1600 3850 2600 3850
Wire Wire Line
	1600 4050 2600 4050
Wire Wire Line
	1600 4250 2600 4250
Wire Wire Line
	1600 4450 2600 4450
Wire Wire Line
	1600 4650 2600 4650
Wire Wire Line
	1600 4850 2600 4850
Text Label 2350 2850 0    60   ~ 0
D1
Text Label 2350 3050 0    60   ~ 0
D2
Text Label 2350 3250 0    60   ~ 0
D3
Text Label 2350 3450 0    60   ~ 0
D4
Text Label 2350 3650 0    60   ~ 0
D5
Text Label 2350 3850 0    60   ~ 0
D6
Text Label 2350 4050 0    60   ~ 0
D7
Text Label 2250 4250 0    60   ~ 0
/ACK
Text Label 2250 4450 0    60   ~ 0
BUSY
Text Label 2250 4650 0    60   ~ 0
PEND
Text Label 2150 4850 0    60   ~ 0
SELECT
Entry Wire Line
	2600 2550 2700 2650
Entry Wire Line
	2600 2750 2700 2850
Entry Wire Line
	2600 2950 2700 3050
Entry Wire Line
	2600 3150 2700 3250
$Comp
L GND #PWR1
U 1 1 5CFFAFCF
P 1750 5850
F 0 "#PWR1" H 1750 5600 50  0001 C CNN
F 1 "GND" H 1750 5700 50  0000 C CNN
F 2 "" H 1750 5850 50  0000 C CNN
F 3 "" H 1750 5850 50  0000 C CNN
	1    1750 5850
	1    0    0    -1  
$EndComp
Wire Wire Line
	1750 3350 1750 5850
Wire Wire Line
	1750 3350 1600 3350
Wire Wire Line
	1600 3550 1750 3550
Connection ~ 1750 3550
Wire Wire Line
	1600 3750 1750 3750
Connection ~ 1750 3750
Wire Wire Line
	1600 3950 1750 3950
Connection ~ 1750 3950
Wire Wire Line
	1600 4150 1750 4150
Connection ~ 1750 4150
Wire Wire Line
	1600 4350 1750 4350
Connection ~ 1750 4350
Wire Wire Line
	1600 4550 1750 4550
Connection ~ 1750 4550
Wire Wire Line
	1600 4750 1750 4750
Connection ~ 1750 4750
Wire Wire Line
	1600 2550 2600 2550
Wire Wire Line
	1600 2750 2600 2750
Wire Wire Line
	1600 2950 2600 2950
Wire Wire Line
	1600 3150 2600 3150
Text Label 2300 2550 0    60   ~ 0
/LF
Text Label 2100 2750 0    60   ~ 0
/ERROR
Text Label 2250 2950 0    60   ~ 0
/INIT
Text Label 2150 3150 0    60   ~ 0
/SELIN
Entry Wire Line
	2700 1750 2800 1650
Entry Wire Line
	2700 1950 2800 1850
Entry Wire Line
	2700 1850 2800 1750
Entry Wire Line
	2700 2050 2800 1950
Entry Wire Line
	2700 2150 2800 2050
Entry Wire Line
	2700 2250 2800 2150
Entry Wire Line
	2700 2350 2800 2250
Entry Wire Line
	2700 2450 2800 2350
Entry Wire Line
	2700 3400 2800 3300
Entry Wire Line
	2700 4700 2800 4600
Entry Wire Line
	2700 3600 2800 3500
Entry Wire Line
	2700 4500 2800 4400
Entry Wire Line
	2700 5800 2800 5700
Entry Wire Line
	5350 6600 5450 6500
Entry Wire Line
	2700 6900 2800 6800
Entry Wire Line
	2700 6700 2800 6600
Wire Wire Line
	2800 1650 3350 1650
Wire Wire Line
	2800 1750 3350 1750
Wire Wire Line
	2800 1850 3350 1850
Wire Wire Line
	2800 1950 3350 1950
Wire Wire Line
	2800 2050 3350 2050
Wire Wire Line
	2800 2150 3350 2150
Wire Wire Line
	2800 2250 3350 2250
Wire Wire Line
	2800 2350 3350 2350
Text Label 2850 2350 0    60   ~ 0
D0
Text Label 2850 2250 0    60   ~ 0
D1
Text Label 2850 2150 0    60   ~ 0
D2
Text Label 2850 2050 0    60   ~ 0
D3
Text Label 2850 1950 0    60   ~ 0
D4
Text Label 2850 1850 0    60   ~ 0
D5
Text Label 2850 1750 0    60   ~ 0
D6
Text Label 2850 1650 0    60   ~ 0
D7
Wire Wire Line
	3450 3300 2800 3300
Text Label 2950 3500 0    60   ~ 0
/STROBE
Text Label 3000 3300 0    60   ~ 0
/LF
Text Label 3600 7450 0    60   ~ 0
/ERROR
Text Label 2950 4600 0    60   ~ 0
/INIT
Text Label 2950 4400 0    60   ~ 0
/SELIN
Text Label 2900 5700 0    60   ~ 0
/ACK
Text Label 2950 5500 0    60   ~ 0
BUSY
Text Label 3000 6800 0    60   ~ 0
PEND
Entry Wire Line
	2700 5600 2800 5500
Text Label 3000 6600 0    60   ~ 0
SELECT
Entry Wire Line
	5350 1650 5450 1750
Entry Wire Line
	5350 1750 5450 1850
Entry Wire Line
	5350 1850 5450 1950
Entry Wire Line
	5350 1950 5450 2050
Entry Wire Line
	5350 2050 5450 2150
Entry Wire Line
	5350 2150 5450 2250
Entry Wire Line
	5350 2250 5450 2350
Entry Wire Line
	5350 2350 5450 2450
Wire Wire Line
	4700 1650 5350 1650
Wire Wire Line
	5350 1750 4700 1750
Wire Wire Line
	4700 1850 5350 1850
Wire Wire Line
	5350 1950 4700 1950
Wire Wire Line
	4700 2050 5350 2050
Wire Wire Line
	5350 2150 4700 2150
Wire Wire Line
	4700 2250 5350 2250
Wire Wire Line
	5350 2350 4700 2350
Entry Wire Line
	5350 3300 5450 3200
Entry Wire Line
	5350 4400 5450 4300
Entry Wire Line
	5350 3500 5450 3400
Entry Wire Line
	5350 5500 5450 5400
Wire Wire Line
	4250 3300 5350 3300
Text Label 5150 2350 0    60   ~ 0
P0
Text Label 5150 2250 0    60   ~ 0
P1
Text Label 5150 2150 0    60   ~ 0
P2
Text Label 5150 2050 0    60   ~ 0
P3
Text Label 5150 1950 0    60   ~ 0
P4
Text Label 5150 1850 0    60   ~ 0
P5
Text Label 5150 1750 0    60   ~ 0
P6
Text Label 5150 1650 0    60   ~ 0
P7
Text Label 4600 3500 0    60   ~ 0
P8
Text Label 4600 3300 0    60   ~ 0
P9
Text Label 4600 4600 0    60   ~ 0
P10
Text Label 4600 4400 0    60   ~ 0
P11
Text Label 4600 5700 0    60   ~ 0
P12
Text Label 4600 5500 0    60   ~ 0
P13
Text Label 4650 6800 0    60   ~ 0
P14
Text Label 4650 6600 0    60   ~ 0
P15
Text Label 6700 6950 0    60   ~ 0
P16
Entry Wire Line
	5450 2850 5550 2750
Entry Wire Line
	5450 2950 5550 2850
Entry Wire Line
	5450 3050 5550 2950
Entry Wire Line
	5450 3150 5550 3050
Entry Wire Line
	5450 3250 5550 3150
Entry Wire Line
	5450 3350 5550 3250
Entry Wire Line
	5450 3450 5550 3350
Entry Wire Line
	5450 3550 5550 3450
Entry Wire Line
	5450 3650 5550 3550
Entry Wire Line
	5450 3750 5550 3650
Entry Wire Line
	5450 3850 5550 3750
Entry Wire Line
	5450 3950 5550 3850
Entry Wire Line
	5450 4050 5550 3950
Entry Wire Line
	5450 4150 5550 4050
Entry Wire Line
	5450 4250 5550 4150
Entry Wire Line
	5450 4350 5550 4250
Wire Wire Line
	5550 2750 5900 2750
Wire Wire Line
	5900 2850 5550 2850
Wire Wire Line
	5550 2950 5900 2950
Wire Wire Line
	5900 3050 5550 3050
Wire Wire Line
	5550 3150 5900 3150
Wire Wire Line
	5900 3250 5550 3250
Wire Wire Line
	5550 3350 5900 3350
Wire Wire Line
	5900 3450 5550 3450
Wire Wire Line
	5550 3550 5900 3550
Wire Wire Line
	5900 3650 5550 3650
Wire Wire Line
	5550 3750 5900 3750
Wire Wire Line
	5900 3850 5550 3850
Wire Wire Line
	5550 3950 5900 3950
Wire Wire Line
	5900 4050 5550 4050
Wire Wire Line
	5550 4150 5900 4150
Wire Wire Line
	5900 4250 5550 4250
Text Label 5700 2750 0    60   ~ 0
P0
Text Label 5700 2850 0    60   ~ 0
P1
Text Label 5700 2950 0    60   ~ 0
P2
Text Label 5700 3050 0    60   ~ 0
P3
Text Label 5700 3150 0    60   ~ 0
P4
Text Label 5700 3250 0    60   ~ 0
P5
Text Label 5700 3350 0    60   ~ 0
P6
Text Label 5700 3450 0    60   ~ 0
P7
Text Label 5700 3550 0    60   ~ 0
P8
Text Label 5700 3650 0    60   ~ 0
P9
Text Label 5700 3750 0    60   ~ 0
P10
Text Label 5700 3850 0    60   ~ 0
P11
Text Label 5700 3950 0    60   ~ 0
P12
Text Label 5700 4050 0    60   ~ 0
P13
Text Label 5700 4150 0    60   ~ 0
P14
Text Label 5700 4250 0    60   ~ 0
P15
Wire Bus Line
	7700 800  7700 5700
Entry Wire Line
	7600 4250 7700 4350
Wire Wire Line
	7100 4250 7600 4250
Text Label 7300 4250 0    60   ~ 0
P16
$Comp
L GND #PWR3
U 1 1 5CFFCF93
P 2900 3100
F 0 "#PWR3" H 2900 2850 50  0001 C CNN
F 1 "GND" H 2900 2950 50  0000 C CNN
F 2 "" H 2900 3100 50  0000 C CNN
F 3 "" H 2900 3100 50  0000 C CNN
	1    2900 3100
	1    0    0    -1  
$EndComp
$Comp
L GND #PWR12
U 1 1 5CFFCFB3
P 3300 2700
F 0 "#PWR12" H 3300 2450 50  0001 C CNN
F 1 "GND" H 3300 2550 50  0000 C CNN
F 2 "" H 3300 2700 50  0000 C CNN
F 3 "" H 3300 2700 50  0000 C CNN
	1    3300 2700
	1    0    0    -1  
$EndComp
Wire Wire Line
	2900 3100 2900 3050
$Comp
L GND #PWR27
U 1 1 5CFFD0D8
P 5950 6350
F 0 "#PWR27" H 5950 6100 50  0001 C CNN
F 1 "GND" H 5950 6200 50  0000 C CNN
F 2 "" H 5950 6350 50  0000 C CNN
F 3 "" H 5950 6350 50  0000 C CNN
	1    5950 6350
	1    0    0    -1  
$EndComp
$Comp
L +5V #PWR11
U 1 1 5CFFD17E
P 3300 850
F 0 "#PWR11" H 3300 700 50  0001 C CNN
F 1 "+5V" H 3300 990 50  0000 C CNN
F 2 "" H 3300 850 50  0000 C CNN
F 3 "" H 3300 850 50  0000 C CNN
	1    3300 850 
	1    0    0    -1  
$EndComp
$Comp
L +3V3 #PWR14
U 1 1 5CFFD19E
P 4800 700
F 0 "#PWR14" H 4800 550 50  0001 C CNN
F 1 "+3V3" H 4800 840 50  0000 C CNN
F 2 "" H 4800 700 50  0000 C CNN
F 3 "" H 4800 700 50  0000 C CNN
	1    4800 700 
	1    0    0    -1  
$EndComp
Wire Wire Line
	3300 850  3300 1350
Entry Wire Line
	5350 2450 5450 2550
Wire Wire Line
	4700 2450 5350 2450
Text Label 7850 1200 0    60   ~ 0
P20
Entry Wire Line
	5350 4600 5450 4500
Entry Wire Line
	5350 5700 5450 5600
Text Label 5150 2450 0    60   ~ 0
P17
Entry Wire Line
	7600 4150 7700 4250
Wire Wire Line
	7100 4150 7600 4150
Text Label 7300 4150 0    60   ~ 0
P17
$Comp
L GND #PWR25
U 1 1 5CFFDB4B
P 5800 5250
F 0 "#PWR25" H 5800 5000 50  0001 C CNN
F 1 "GND" H 5800 5100 50  0000 C CNN
F 2 "" H 5800 5250 50  0000 C CNN
F 3 "" H 5800 5250 50  0000 C CNN
	1    5800 5250
	1    0    0    -1  
$EndComp
Wire Wire Line
	5800 4550 5800 5250
Wire Wire Line
	5800 4550 5900 4550
Wire Wire Line
	5900 4650 5800 4650
Connection ~ 5800 4650
Wire Wire Line
	5900 4750 5800 4750
Connection ~ 5800 4750
$Comp
L +5V #PWR31
U 1 1 5CFFDD7A
P 8050 700
F 0 "#PWR31" H 8050 550 50  0001 C CNN
F 1 "+5V" H 8050 840 50  0000 C CNN
F 2 "" H 8050 700 50  0000 C CNN
F 3 "" H 8050 700 50  0000 C CNN
	1    8050 700 
	1    0    0    -1  
$EndComp
$Comp
L +3V3 #PWR33
U 1 1 5CFFDD9A
P 8300 700
F 0 "#PWR33" H 8300 550 50  0001 C CNN
F 1 "+3V3" H 8300 840 50  0000 C CNN
F 2 "" H 8300 700 50  0000 C CNN
F 3 "" H 8300 700 50  0000 C CNN
	1    8300 700 
	1    0    0    -1  
$EndComp
Wire Wire Line
	8300 4550 7100 4550
Wire Wire Line
	8300 700  8300 4950
Wire Wire Line
	8050 4450 7100 4450
Wire Wire Line
	8050 700  8050 4950
$Comp
L GND #PWR29
U 1 1 5CFFE15A
P 6450 6350
F 0 "#PWR29" H 6450 6100 50  0001 C CNN
F 1 "GND" H 6450 6200 50  0000 C CNN
F 2 "" H 6450 6350 50  0000 C CNN
F 3 "" H 6450 6350 50  0000 C CNN
	1    6450 6350
	1    0    0    -1  
$EndComp
$Comp
L C C7
U 1 1 5CFFE325
P 8050 5100
F 0 "C7" H 8075 5200 50  0000 L CNN
F 1 "0.1uF" H 8075 5000 50  0000 L CNN
F 2 "Capacitors_SMD:C_1206_HandSoldering" H 8088 4950 50  0001 C CNN
F 3 "" H 8050 5100 50  0000 C CNN
	1    8050 5100
	1    0    0    -1  
$EndComp
$Comp
L C C8
U 1 1 5CFFE388
P 8300 5100
F 0 "C8" H 8325 5200 50  0000 L CNN
F 1 "0.1uF" H 8325 5000 50  0000 L CNN
F 2 "Capacitors_SMD:C_1206_HandSoldering" H 8338 4950 50  0001 C CNN
F 3 "" H 8300 5100 50  0000 C CNN
	1    8300 5100
	1    0    0    -1  
$EndComp
$Comp
L C C3
U 1 1 5CFFE639
P 2900 2900
F 0 "C3" H 2925 3000 50  0000 L CNN
F 1 "0.1uF" H 2925 2800 50  0000 L CNN
F 2 "Capacitors_SMD:C_1206_HandSoldering" H 2938 2750 50  0001 C CNN
F 3 "" H 2900 2900 50  0000 C CNN
	1    2900 2900
	1    0    0    -1  
$EndComp
$Comp
L C C6
U 1 1 5CFFE6A0
P 5100 4050
F 0 "C6" H 5125 4150 50  0000 L CNN
F 1 "0.1uF" H 5125 3950 50  0000 L CNN
F 2 "Capacitors_SMD:C_1206_HandSoldering" H 5138 3900 50  0001 C CNN
F 3 "" H 5100 4050 50  0000 C CNN
	1    5100 4050
	1    0    0    -1  
$EndComp
$Comp
L C C4
U 1 1 5CFFE766
P 5050 1050
F 0 "C4" H 5075 1150 50  0000 L CNN
F 1 "0.1uF" H 5075 950 50  0000 L CNN
F 2 "Capacitors_SMD:C_1206_HandSoldering" H 5088 900 50  0001 C CNN
F 3 "" H 5050 1050 50  0000 C CNN
	1    5050 1050
	1    0    0    -1  
$EndComp
$Comp
L C C1
U 1 1 5CFFE818
P 3000 1150
F 0 "C1" H 3025 1250 50  0000 L CNN
F 1 "0.1uF" H 3025 1050 50  0000 L CNN
F 2 "Capacitors_SMD:C_1206_HandSoldering" H 3038 1000 50  0001 C CNN
F 3 "" H 3000 1150 50  0000 C CNN
	1    3000 1150
	1    0    0    -1  
$EndComp
$Comp
L GND #PWR10
U 1 1 5CFFE859
P 3000 1350
F 0 "#PWR10" H 3000 1100 50  0001 C CNN
F 1 "GND" H 3000 1200 50  0000 C CNN
F 2 "" H 3000 1350 50  0000 C CNN
F 3 "" H 3000 1350 50  0000 C CNN
	1    3000 1350
	1    0    0    -1  
$EndComp
$Comp
L GND #PWR16
U 1 1 5CFFE889
P 5050 1300
F 0 "#PWR16" H 5050 1050 50  0001 C CNN
F 1 "GND" H 5050 1150 50  0000 C CNN
F 2 "" H 5050 1300 50  0000 C CNN
F 3 "" H 5050 1300 50  0000 C CNN
	1    5050 1300
	1    0    0    -1  
$EndComp
$Comp
L GND #PWR15
U 1 1 5CFFE8B9
P 4800 2700
F 0 "#PWR15" H 4800 2450 50  0001 C CNN
F 1 "GND" H 4800 2550 50  0000 C CNN
F 2 "" H 4800 2700 50  0000 C CNN
F 3 "" H 4800 2700 50  0000 C CNN
	1    4800 2700
	1    0    0    -1  
$EndComp
$Comp
L GND #PWR20
U 1 1 5CFFE8F7
P 5100 4200
F 0 "#PWR20" H 5100 3950 50  0001 C CNN
F 1 "GND" H 5100 4050 50  0000 C CNN
F 2 "" H 5100 4200 50  0000 C CNN
F 3 "" H 5100 4200 50  0000 C CNN
	1    5100 4200
	1    0    0    -1  
$EndComp
$Comp
L GND #PWR34
U 1 1 5CFFE927
P 8300 5500
F 0 "#PWR34" H 8300 5250 50  0001 C CNN
F 1 "GND" H 8300 5350 50  0000 C CNN
F 2 "" H 8300 5500 50  0000 C CNN
F 3 "" H 8300 5500 50  0000 C CNN
	1    8300 5500
	1    0    0    -1  
$EndComp
Wire Wire Line
	3000 1350 3000 1300
Wire Wire Line
	3000 1000 3000 950 
Wire Wire Line
	3000 950  3300 950 
Connection ~ 3300 950 
Connection ~ 8050 4450
Connection ~ 8300 4550
Wire Wire Line
	8050 5500 8050 5250
Wire Wire Line
	8300 5500 8300 5250
Entry Wire Line
	7600 4050 7700 4150
Entry Wire Line
	7600 3950 7700 4050
Entry Wire Line
	7600 3850 7700 3950
Text Label 7850 1000 0    60   ~ 0
P18
Text Label 7850 1100 0    60   ~ 0
P19
Wire Wire Line
	7100 4050 7600 4050
Wire Wire Line
	7100 3950 7600 3950
Wire Wire Line
	7100 3850 7600 3850
Text Label 7300 4050 0    60   ~ 0
P18
Text Label 7300 3950 0    60   ~ 0
P19
Text Label 7300 3850 0    60   ~ 0
P20
NoConn ~ 7100 3250
NoConn ~ 7100 3150
NoConn ~ 7100 3050
NoConn ~ 7100 2950
NoConn ~ 7100 2850
NoConn ~ 7100 2750
Wire Wire Line
	7100 3750 7600 3750
Entry Wire Line
	7600 3750 7700 3850
Entry Wire Line
	7600 3650 7700 3750
Entry Wire Line
	7600 3550 7700 3650
Entry Wire Line
	7600 3450 7700 3550
Entry Wire Line
	7600 3350 7700 3450
Wire Wire Line
	7100 3650 7600 3650
Wire Wire Line
	7600 3550 7100 3550
Wire Wire Line
	7600 3450 7100 3450
Wire Wire Line
	7600 3350 7100 3350
Text Label 7300 3750 0    60   ~ 0
P21
Text Label 7300 3650 0    60   ~ 0
P22
Text Label 7300 3550 0    60   ~ 0
P23
Text Label 7300 3450 0    60   ~ 0
P24
Text Label 7300 3350 0    60   ~ 0
P25
Entry Wire Line
	9850 1000 9950 1100
Entry Wire Line
	9850 1100 9950 1200
Entry Wire Line
	9850 1200 9950 1300
Entry Wire Line
	9850 1300 9950 1400
Entry Wire Line
	9850 1400 9950 1500
Wire Wire Line
	9400 1000 9850 1000
Wire Wire Line
	9400 1100 9850 1100
Wire Wire Line
	9850 1200 9400 1200
Wire Wire Line
	9400 1300 9850 1300
Wire Wire Line
	9850 1400 9400 1400
Text Label 9600 1000 0    60   ~ 0
P21
Text Label 9600 1100 0    60   ~ 0
P22
Text Label 9600 1200 0    60   ~ 0
P23
Text Label 9600 1300 0    60   ~ 0
P24
Text Label 9600 1400 0    60   ~ 0
P25
Wire Wire Line
	5900 2550 5550 2550
Wire Wire Line
	5550 2550 5550 2250
Wire Wire Line
	5550 2250 9700 2250
Wire Wire Line
	7100 2550 9500 2550
$Comp
L GND #PWR35
U 1 1 5D1F7AD9
P 8400 2350
F 0 "#PWR35" H 8400 2100 50  0001 C CNN
F 1 "GND" H 8400 2200 50  0000 C CNN
F 2 "" H 8400 2350 50  0000 C CNN
F 3 "" H 8400 2350 50  0000 C CNN
	1    8400 2350
	1    0    0    -1  
$EndComp
Wire Wire Line
	8900 1300 8400 1300
Connection ~ 8400 1300
Wire Wire Line
	8900 1400 8400 1400
Connection ~ 8400 1400
Wire Wire Line
	8400 1500 8900 1500
Connection ~ 8400 1500
Connection ~ 8400 1600
$Comp
L CONN_02X10 P1
U 1 1 5D1FA249
P 9150 1450
F 0 "P1" H 9150 2000 50  0000 C CNN
F 1 "CONN_02X10" V 9150 1450 50  0000 C CNN
F 2 "Socket_Strips:Socket_Strip_Straight_2x10" H 9150 250 50  0001 C CNN
F 3 "" H 9150 250 50  0000 C CNN
	1    9150 1450
	1    0    0    -1  
$EndComp
$Comp
L GND #PWR37
U 1 1 5D1FAF8B
P 9550 2600
F 0 "#PWR37" H 9550 2350 50  0001 C CNN
F 1 "GND" H 9550 2450 50  0000 C CNN
F 2 "" H 9550 2600 50  0000 C CNN
F 3 "" H 9550 2600 50  0000 C CNN
	1    9550 2600
	1    0    0    -1  
$EndComp
Text Label 7150 2550 0    60   ~ 0
5-9V
Text Label 5600 2550 0    60   ~ 0
RESET
$Comp
L 1PAD M1
U 1 1 5D2356BC
P 10600 1200
F 0 "M1" H 10600 1600 60  0000 C CNN
F 1 "1PAD" H 10600 1500 60  0000 C CNN
F 2 "Connect:1pin" H 10600 1200 60  0001 C CNN
F 3 "" H 10600 1200 60  0001 C CNN
	1    10600 1200
	1    0    0    -1  
$EndComp
$Comp
L 1PAD M2
U 1 1 5D235719
P 10600 1900
F 0 "M2" H 10600 2300 60  0000 C CNN
F 1 "1PAD" H 10600 2200 60  0000 C CNN
F 2 "Connect:1pin" H 10600 1900 60  0001 C CNN
F 3 "" H 10600 1900 60  0001 C CNN
	1    10600 1900
	1    0    0    -1  
$EndComp
$Comp
L 1PAD M3
U 1 1 5D2357E7
P 10600 2700
F 0 "M3" H 10600 3100 60  0000 C CNN
F 1 "1PAD" H 10600 3000 60  0000 C CNN
F 2 "Connect:1pin" H 10600 2700 60  0001 C CNN
F 3 "" H 10600 2700 60  0001 C CNN
	1    10600 2700
	1    0    0    -1  
$EndComp
$Comp
L 1PAD M4
U 1 1 5D235864
P 10600 3400
F 0 "M4" H 10600 3800 60  0000 C CNN
F 1 "1PAD" H 10600 3700 60  0000 C CNN
F 2 "Connect:1pin" H 10600 3400 60  0001 C CNN
F 3 "" H 10600 3400 60  0001 C CNN
	1    10600 3400
	1    0    0    -1  
$EndComp
$Comp
L GND #PWR38
U 1 1 5D235F77
P 10100 4250
F 0 "#PWR38" H 10100 4000 50  0001 C CNN
F 1 "GND" H 10100 4100 50  0000 C CNN
F 2 "" H 10100 4250 50  0001 C CNN
F 3 "" H 10100 4250 50  0001 C CNN
	1    10100 4250
	1    0    0    -1  
$EndComp
Wire Wire Line
	10100 1200 10100 4250
Wire Wire Line
	10100 1200 10300 1200
Wire Wire Line
	10300 1900 10100 1900
Connection ~ 10100 1900
Wire Wire Line
	10300 2700 10100 2700
Connection ~ 10100 2700
Wire Wire Line
	10300 3400 10100 3400
Connection ~ 10100 3400
$Comp
L SN74LVC4245APW U2
U 1 1 5D52AB79
P 3350 1350
F 0 "U2" H 3650 1550 50  0000 L BNN
F 1 "SN74LVC4245APW" H 3700 -50 50  0000 L BNN
F 2 "SN74LVC4245APW:SOP65P640X120-24N" H 3550 -450 50  0001 L BNN
F 3 "SN74LVC4245APW-ND" H 3550 -550 50  0001 L BNN
F 4 "https://www.digikey.com.au/product-detail/en/texas-instruments/SN74LVC4245APW/SN74LVC4245APW-ND/1592405?utm_source=snapeda&utm_medium=aggregator&utm_campaign=symbol" H 50  -150 50  0001 L BNN "Field4"
F 5 "Octal Bus Transceiver And 3.3-V To 5-V Shifter With 3-State Outputs 24-TSSOP -40 to 85" H 2000 -250 50  0001 L BNN "Field5"
F 6 "Texas Instruments" H 3600 -650 50  0001 L BNN "Field6"
F 7 "TSSOP-24 Texas Instruments" H 3450 -350 50  0001 L BNN "Field7"
F 8 "SN74LVC4245APW" H 3600 -750 50  0001 L BNN "Field8"
	1    3350 1350
	1    0    0    -1  
$EndComp
Wire Bus Line
	5450 5700 9950 5700
Wire Wire Line
	4800 1450 4700 1450
Wire Wire Line
	4800 700  4800 1450
Wire Wire Line
	4700 1350 4800 1350
Connection ~ 4800 1350
Wire Wire Line
	5050 1300 5050 1200
Wire Wire Line
	5050 900  5050 800 
Wire Wire Line
	5050 800  4800 800 
Connection ~ 4800 800 
Wire Wire Line
	3300 1350 3350 1350
Wire Wire Line
	3300 2500 3300 2700
Wire Wire Line
	3300 2500 3350 2450
Wire Wire Line
	3350 2550 3300 2600
Connection ~ 3300 2600
Wire Wire Line
	4800 2550 4700 2550
$Comp
L 74LVC2T45DC U3
U 1 1 5D531E79
P 3450 3100
F 0 "U3" H 4100 3250 50  0000 C CNN
F 1 "74LVC2T45DC" H 3850 2300 50  0000 C CNN
F 2 "SN74LVC2T45DCUT:SOP50P310X90-8N" H 3450 2250 50  0001 C CNN
F 3 "" H 3700 2850 50  0001 C CNN
	1    3450 3100
	1    0    0    -1  
$EndComp
$Comp
L 74LVC2T45DC U6
U 1 1 5D5320E7
P 3450 6400
F 0 "U6" H 3650 6550 50  0000 C CNN
F 1 "74LVC2T45DC" H 3850 5650 50  0000 C CNN
F 2 "SN74LVC2T45DCUT:SOP50P310X90-8N" H 3450 5550 50  0001 C CNN
F 3 "" H 3700 6150 50  0001 C CNN
	1    3450 6400
	1    0    0    -1  
$EndComp
$Comp
L 74LVC2T45DC U5
U 1 1 5D532138
P 3450 5300
F 0 "U5" H 3650 5500 50  0000 C CNN
F 1 "74LVC2T45DC" H 3800 4500 50  0000 C CNN
F 2 "SN74LVC2T45DCUT:SOP50P310X90-8N" H 3450 4450 50  0001 C CNN
F 3 "" H 3700 5050 50  0001 C CNN
	1    3450 5300
	1    0    0    -1  
$EndComp
Wire Wire Line
	2800 3500 3450 3500
Wire Wire Line
	2900 2650 2900 2750
Wire Wire Line
	3450 3100 3200 3100
Wire Wire Line
	3200 3100 3200 2700
Wire Wire Line
	3200 2700 2900 2700
Connection ~ 2900 2700
Wire Wire Line
	5350 3500 4250 3500
Wire Wire Line
	4250 3100 4900 3100
$Comp
L +5V #PWR2
U 1 1 5D5349FB
P 2900 2650
F 0 "#PWR2" H 2900 2500 50  0001 C CNN
F 1 "+5V" H 2900 2790 50  0000 C CNN
F 2 "" H 2900 2650 50  0000 C CNN
F 3 "" H 2900 2650 50  0000 C CNN
	1    2900 2650
	1    0    0    -1  
$EndComp
$Comp
L +3V3 #PWR17
U 1 1 5D534B0A
P 5100 2650
F 0 "#PWR17" H 5100 2500 50  0001 C CNN
F 1 "+3V3" H 5100 2790 50  0000 C CNN
F 2 "" H 5100 2650 50  0000 C CNN
F 3 "" H 5100 2650 50  0000 C CNN
	1    5100 2650
	1    0    0    -1  
$EndComp
$Comp
L C C11
U 1 1 5D534B65
P 5100 2900
F 0 "C11" H 5125 3000 50  0000 L CNN
F 1 "0.1uF" H 5125 2800 50  0000 L CNN
F 2 "Capacitors_SMD:C_1206_HandSoldering" H 5138 2750 50  0001 C CNN
F 3 "" H 5100 2900 50  0000 C CNN
	1    5100 2900
	1    0    0    -1  
$EndComp
Wire Wire Line
	4900 2700 5100 2700
Wire Wire Line
	5100 2650 5100 2750
Wire Wire Line
	4900 3100 4900 2700
Connection ~ 5100 2700
$Comp
L GND #PWR18
U 1 1 5D534E66
P 5100 3050
F 0 "#PWR18" H 5100 2800 50  0001 C CNN
F 1 "GND" H 5100 2900 50  0000 C CNN
F 2 "" H 5100 3050 50  0000 C CNN
F 3 "" H 5100 3050 50  0000 C CNN
	1    5100 3050
	1    0    0    -1  
$EndComp
$Comp
L 74LVC2T45DC U4
U 1 1 5D53544E
P 3450 4200
F 0 "U4" H 3600 4400 50  0000 C CNN
F 1 "74LVC2T45DC" H 3800 3400 50  0000 C CNN
F 2 "SN74LVC2T45DCUT:SOP50P310X90-8N" H 3450 3350 50  0001 C CNN
F 3 "" H 3700 3950 50  0001 C CNN
	1    3450 4200
	1    0    0    -1  
$EndComp
$Comp
L GND #PWR5
U 1 1 5D535757
P 2900 4150
F 0 "#PWR5" H 2900 3900 50  0001 C CNN
F 1 "GND" H 2900 4000 50  0000 C CNN
F 2 "" H 2900 4150 50  0000 C CNN
F 3 "" H 2900 4150 50  0000 C CNN
	1    2900 4150
	1    0    0    -1  
$EndComp
Wire Wire Line
	2900 4150 2900 4100
$Comp
L C C2
U 1 1 5D53575E
P 2900 3950
F 0 "C2" H 2925 4050 50  0000 L CNN
F 1 "0.1uF" H 2925 3850 50  0000 L CNN
F 2 "Capacitors_SMD:C_1206_HandSoldering" H 2938 3800 50  0001 C CNN
F 3 "" H 2900 3950 50  0000 C CNN
	1    2900 3950
	1    0    0    -1  
$EndComp
Wire Wire Line
	2900 3700 2900 3800
Wire Wire Line
	3200 3750 2900 3750
Connection ~ 2900 3750
$Comp
L +5V #PWR4
U 1 1 5D535767
P 2900 3700
F 0 "#PWR4" H 2900 3550 50  0001 C CNN
F 1 "+5V" H 2900 3840 50  0000 C CNN
F 2 "" H 2900 3700 50  0000 C CNN
F 3 "" H 2900 3700 50  0000 C CNN
	1    2900 3700
	1    0    0    -1  
$EndComp
Wire Wire Line
	3200 3750 3200 4200
Wire Wire Line
	3200 4200 3450 4200
Wire Wire Line
	3450 4400 2800 4400
Wire Wire Line
	3450 4600 2800 4600
Wire Wire Line
	4250 4400 5350 4400
Wire Wire Line
	4250 4600 5350 4600
$Comp
L +3V3 #PWR19
U 1 1 5D536261
P 5100 3800
F 0 "#PWR19" H 5100 3650 50  0001 C CNN
F 1 "+3V3" H 5100 3940 50  0000 C CNN
F 2 "" H 5100 3800 50  0000 C CNN
F 3 "" H 5100 3800 50  0000 C CNN
	1    5100 3800
	1    0    0    -1  
$EndComp
Wire Wire Line
	5100 3800 5100 3900
Wire Wire Line
	4250 4200 4900 4200
Wire Wire Line
	4900 4200 4900 3850
Wire Wire Line
	4900 3850 5100 3850
Connection ~ 5100 3850
Wire Wire Line
	3300 4800 3450 4800
$Comp
L C C5
U 1 1 5D537223
P 2900 5050
F 0 "C5" H 2925 5150 50  0000 L CNN
F 1 "0.1uF" H 2925 4950 50  0000 L CNN
F 2 "Capacitors_SMD:C_1206_HandSoldering" H 2938 4900 50  0001 C CNN
F 3 "" H 2900 5050 50  0000 C CNN
	1    2900 5050
	1    0    0    -1  
$EndComp
$Comp
L +5V #PWR6
U 1 1 5D537383
P 2900 4800
F 0 "#PWR6" H 2900 4650 50  0001 C CNN
F 1 "+5V" H 2900 4940 50  0000 C CNN
F 2 "" H 2900 4800 50  0000 C CNN
F 3 "" H 2900 4800 50  0000 C CNN
	1    2900 4800
	1    0    0    -1  
$EndComp
Wire Wire Line
	2900 4800 2900 4900
Wire Wire Line
	3450 5300 3200 5300
Wire Wire Line
	3200 4850 2900 4850
Connection ~ 2900 4850
$Comp
L GND #PWR7
U 1 1 5D53793B
P 2900 5200
F 0 "#PWR7" H 2900 4950 50  0001 C CNN
F 1 "GND" H 2900 5050 50  0000 C CNN
F 2 "" H 2900 5200 50  0000 C CNN
F 3 "" H 2900 5200 50  0000 C CNN
	1    2900 5200
	1    0    0    -1  
$EndComp
Wire Wire Line
	3450 5500 2800 5500
Wire Wire Line
	3450 5700 2800 5700
Wire Wire Line
	4250 5500 5350 5500
Wire Wire Line
	4250 5700 5350 5700
$Comp
L +3V3 #PWR21
U 1 1 5D5386F0
P 5100 4900
F 0 "#PWR21" H 5100 4750 50  0001 C CNN
F 1 "+3V3" H 5100 5040 50  0000 C CNN
F 2 "" H 5100 4900 50  0000 C CNN
F 3 "" H 5100 4900 50  0000 C CNN
	1    5100 4900
	1    0    0    -1  
$EndComp
$Comp
L C C12
U 1 1 5D538753
P 5100 5150
F 0 "C12" H 5125 5250 50  0000 L CNN
F 1 "0.1uF" H 5125 5050 50  0000 L CNN
F 2 "Capacitors_SMD:C_1206_HandSoldering" H 5138 5000 50  0001 C CNN
F 3 "" H 5100 5150 50  0000 C CNN
	1    5100 5150
	1    0    0    -1  
$EndComp
$Comp
L GND #PWR22
U 1 1 5D538807
P 5100 5300
F 0 "#PWR22" H 5100 5050 50  0001 C CNN
F 1 "GND" H 5100 5150 50  0000 C CNN
F 2 "" H 5100 5300 50  0000 C CNN
F 3 "" H 5100 5300 50  0000 C CNN
	1    5100 5300
	1    0    0    -1  
$EndComp
Wire Wire Line
	5100 4900 5100 5000
Wire Wire Line
	4250 5300 4900 5300
Wire Wire Line
	4900 5300 4900 4950
Wire Wire Line
	4900 4950 5100 4950
Connection ~ 5100 4950
$Comp
L GND #PWR13
U 1 1 5D538A72
P 4400 7050
F 0 "#PWR13" H 4400 6800 50  0001 C CNN
F 1 "GND" H 4400 6900 50  0000 C CNN
F 2 "" H 4400 7050 50  0000 C CNN
F 3 "" H 4400 7050 50  0000 C CNN
	1    4400 7050
	1    0    0    -1  
$EndComp
Wire Wire Line
	4400 5900 4250 5900
Wire Wire Line
	4400 3700 4400 7050
Wire Wire Line
	3200 5300 3200 4850
$Comp
L +5V #PWR8
U 1 1 5D53C964
P 2900 5900
F 0 "#PWR8" H 2900 5750 50  0001 C CNN
F 1 "+5V" H 2900 6040 50  0000 C CNN
F 2 "" H 2900 5900 50  0000 C CNN
F 3 "" H 2900 5900 50  0000 C CNN
	1    2900 5900
	1    0    0    -1  
$EndComp
$Comp
L C C9
U 1 1 5D53C9CB
P 2900 6150
F 0 "C9" H 2925 6250 50  0000 L CNN
F 1 "0.1uF" H 2925 6050 50  0000 L CNN
F 2 "Capacitors_SMD:C_1206_HandSoldering" H 2938 6000 50  0001 C CNN
F 3 "" H 2900 6150 50  0000 C CNN
	1    2900 6150
	1    0    0    -1  
$EndComp
$Comp
L GND #PWR9
U 1 1 5D53CA6F
P 2900 6300
F 0 "#PWR9" H 2900 6050 50  0001 C CNN
F 1 "GND" H 2900 6150 50  0000 C CNN
F 2 "" H 2900 6300 50  0000 C CNN
F 3 "" H 2900 6300 50  0000 C CNN
	1    2900 6300
	1    0    0    -1  
$EndComp
Wire Wire Line
	3450 6600 2800 6600
Wire Wire Line
	3450 6400 3150 6400
Wire Wire Line
	3150 6400 3150 5950
Wire Wire Line
	3150 5950 2900 5950
Wire Wire Line
	2900 5900 2900 6000
Connection ~ 2900 5950
Wire Wire Line
	3450 6800 2800 6800
$Comp
L +3V3 #PWR23
U 1 1 5D53DF7D
P 5100 6000
F 0 "#PWR23" H 5100 5850 50  0001 C CNN
F 1 "+3V3" H 5100 6140 50  0000 C CNN
F 2 "" H 5100 6000 50  0000 C CNN
F 3 "" H 5100 6000 50  0000 C CNN
	1    5100 6000
	1    0    0    -1  
$EndComp
$Comp
L C C10
U 1 1 5D53E050
P 5100 6250
F 0 "C10" H 5125 6350 50  0000 L CNN
F 1 "0.1uF" H 5125 6150 50  0000 L CNN
F 2 "Capacitors_SMD:C_1206_HandSoldering" H 5138 6100 50  0001 C CNN
F 3 "" H 5100 6250 50  0000 C CNN
	1    5100 6250
	1    0    0    -1  
$EndComp
$Comp
L GND #PWR24
U 1 1 5D53E16C
P 5100 6400
F 0 "#PWR24" H 5100 6150 50  0001 C CNN
F 1 "GND" H 5100 6250 50  0000 C CNN
F 2 "" H 5100 6400 50  0000 C CNN
F 3 "" H 5100 6400 50  0000 C CNN
	1    5100 6400
	1    0    0    -1  
$EndComp
Wire Wire Line
	5100 6000 5100 6100
Wire Wire Line
	4250 6400 4900 6400
Wire Wire Line
	4900 6400 4900 6050
Wire Wire Line
	4900 6050 5100 6050
Connection ~ 5100 6050
Wire Wire Line
	4250 6600 5350 6600
Entry Wire Line
	5350 6800 5450 6700
Wire Wire Line
	5350 6800 4250 6800
Wire Wire Line
	4250 7000 4400 7000
Connection ~ 4400 7000
$Comp
L SN74LVC1T45DBV U7
U 1 1 5D53F8DB
P 5900 6750
F 0 "U7" H 6050 6900 50  0000 C CNN
F 1 "SN74LVC1T45DBV" H 5950 6200 50  0000 L CNN
F 2 "TO_SOT_Packages_SMD:SOT-23-6_Handsoldering" H 6300 6100 50  0001 C CNN
F 3 "" H 5400 5900 50  0001 C CNN
	1    5900 6750
	1    0    0    -1  
$EndComp
$Comp
L +3V3 #PWR28
U 1 1 5D53FC5B
P 6450 5950
F 0 "#PWR28" H 6450 5800 50  0001 C CNN
F 1 "+3V3" H 6450 6090 50  0000 C CNN
F 2 "" H 6450 5950 50  0000 C CNN
F 3 "" H 6450 5950 50  0000 C CNN
	1    6450 5950
	1    0    0    -1  
$EndComp
Wire Bus Line
	6950 6850 6950 5700
Entry Wire Line
	6850 6950 6950 6850
Wire Wire Line
	6850 6950 6700 6950
$Comp
L C C14
U 1 1 5D5400D3
P 6450 6200
F 0 "C14" H 6475 6300 50  0000 L CNN
F 1 "0.1uF" H 6475 6100 50  0000 L CNN
F 2 "Capacitors_SMD:C_1206_HandSoldering" H 6488 6050 50  0001 C CNN
F 3 "" H 6450 6200 50  0000 C CNN
	1    6450 6200
	1    0    0    -1  
$EndComp
Wire Wire Line
	6450 5950 6450 6050
Wire Wire Line
	6700 6750 6850 6750
Wire Wire Line
	6850 6750 6850 6000
Wire Wire Line
	6850 6000 6450 6000
Connection ~ 6450 6000
$Comp
L +5V #PWR26
U 1 1 5D5404A6
P 5950 5950
F 0 "#PWR26" H 5950 5800 50  0001 C CNN
F 1 "+5V" H 5950 6090 50  0000 C CNN
F 2 "" H 5950 5950 50  0000 C CNN
F 3 "" H 5950 5950 50  0000 C CNN
	1    5950 5950
	1    0    0    -1  
$EndComp
$Comp
L C C13
U 1 1 5D540519
P 5950 6200
F 0 "C13" H 5975 6300 50  0000 L CNN
F 1 "0.1uF" H 5975 6100 50  0000 L CNN
F 2 "Capacitors_SMD:C_1206_HandSoldering" H 5988 6050 50  0001 C CNN
F 3 "" H 5950 6200 50  0000 C CNN
	1    5950 6200
	1    0    0    -1  
$EndComp
Wire Wire Line
	5950 5950 5950 6050
Wire Wire Line
	5900 6750 5650 6750
Wire Wire Line
	5650 6000 5950 6000
Connection ~ 5950 6000
Wire Wire Line
	5900 6950 5600 6950
Wire Wire Line
	5600 6950 5600 7450
Wire Wire Line
	5600 7450 2800 7450
Entry Wire Line
	2700 7350 2800 7450
Wire Bus Line
	9950 5700 9950 1100
Wire Wire Line
	9500 2550 9500 1900
Wire Wire Line
	9500 1900 9400 1900
Wire Wire Line
	8900 1900 8600 1900
Wire Wire Line
	8600 1900 8600 2550
Connection ~ 8600 2550
Wire Wire Line
	9700 2250 9700 1500
Wire Wire Line
	9700 1500 9400 1500
Wire Wire Line
	8900 1800 8300 1800
Connection ~ 8300 1800
Wire Wire Line
	8300 2150 9650 2150
Wire Wire Line
	9650 2150 9650 1800
Wire Wire Line
	9650 1800 9400 1800
Connection ~ 8300 2150
Wire Wire Line
	8050 1700 8900 1700
Connection ~ 8050 1700
Wire Wire Line
	8050 2050 9600 2050
Wire Wire Line
	9600 2050 9600 1700
Wire Wire Line
	9600 1700 9400 1700
Connection ~ 8050 2050
Wire Wire Line
	9550 2600 9550 1600
Wire Wire Line
	9550 1600 9400 1600
Wire Wire Line
	8400 1600 8900 1600
Entry Wire Line
	7700 900  7800 1000
Entry Wire Line
	7700 1000 7800 1100
Entry Wire Line
	7700 1100 7800 1200
Wire Wire Line
	8900 1000 7800 1000
Wire Wire Line
	8900 1100 7800 1100
Wire Wire Line
	8900 1200 7800 1200
$Comp
L GND #PWR30
U 1 1 5D544D3C
P 6850 7400
F 0 "#PWR30" H 6850 7150 50  0001 C CNN
F 1 "GND" H 6850 7250 50  0000 C CNN
F 2 "" H 6850 7400 50  0000 C CNN
F 3 "" H 6850 7400 50  0000 C CNN
	1    6850 7400
	1    0    0    -1  
$EndComp
Wire Wire Line
	6850 7400 6850 7150
Wire Wire Line
	6850 7150 6700 7150
Wire Wire Line
	5550 7150 5900 7150
Wire Wire Line
	8400 1300 8400 2350
Wire Wire Line
	3300 3700 3450 3700
Wire Wire Line
	4250 3700 4400 3700
Wire Wire Line
	4400 4800 4250 4800
Connection ~ 4400 5900
Connection ~ 4400 4800
Entry Wire Line
	5350 3600 5450 3500
Wire Wire Line
	3300 3950 4500 3950
Wire Wire Line
	4500 3950 4500 3600
Wire Wire Line
	4500 3600 5350 3600
Wire Wire Line
	3300 3950 3300 3700
Text Label 4600 3600 0    60   ~ 0
P18
Entry Wire Line
	5350 4700 5450 4600
Wire Wire Line
	5350 4700 4500 4700
Wire Wire Line
	4500 4700 4500 5050
Wire Wire Line
	4500 5050 3300 5050
Wire Wire Line
	3300 5050 3300 4800
Text Label 4600 4700 0    60   ~ 0
P19
Entry Wire Line
	5350 5800 5450 5700
Wire Wire Line
	3450 5900 3300 5900
Wire Wire Line
	3300 5900 3300 6150
Wire Wire Line
	3300 6150 4500 6150
Wire Wire Line
	4500 6150 4500 5800
Wire Wire Line
	4500 5800 5350 5800
Text Label 4600 5800 0    60   ~ 0
P20
Entry Wire Line
	5350 6900 5450 6800
Wire Wire Line
	3450 7000 3300 7000
Wire Wire Line
	3300 7000 3300 7300
Wire Wire Line
	3300 7300 4500 7300
Wire Wire Line
	4500 7300 4500 6900
Wire Wire Line
	4500 6900 5350 6900
Text Label 4650 6900 0    60   ~ 0
P21
Wire Bus Line
	5450 1600 5450 7200
Wire Wire Line
	5650 6750 5650 6000
Entry Wire Line
	5450 7050 5550 7150
Text Label 5650 7150 0    60   ~ 0
P22
$Comp
L R R1
U 1 1 5D5BE943
P 9500 3600
F 0 "R1" V 9580 3600 50  0000 C CNN
F 1 "10K" V 9500 3600 50  0000 C CNN
F 2 "Resistors_SMD:R_1206_HandSoldering" V 9430 3600 50  0001 C CNN
F 3 "" H 9500 3600 50  0000 C CNN
	1    9500 3600
	1    0    0    -1  
$EndComp
$Comp
L +3V3 #PWR36
U 1 1 5D5BF22A
P 9500 3250
F 0 "#PWR36" H 9500 3100 50  0001 C CNN
F 1 "+3V3" H 9500 3390 50  0000 C CNN
F 2 "" H 9500 3250 50  0000 C CNN
F 3 "" H 9500 3250 50  0000 C CNN
	1    9500 3250
	1    0    0    -1  
$EndComp
Entry Wire Line
	9850 3950 9950 3850
Wire Wire Line
	9850 3950 9500 3950
Wire Wire Line
	9500 3950 9500 3750
Text Label 9600 3950 0    60   ~ 0
P17
Wire Wire Line
	9500 3250 9500 3450
Wire Wire Line
	4800 2700 4800 2550
Entry Wire Line
	5350 1550 5450 1650
Wire Wire Line
	4700 1550 5350 1550
Text Label 5150 1550 0    60   ~ 0
P23
$Comp
L R R2
U 1 1 5D5C0BA4
P 9300 3600
F 0 "R2" V 9380 3600 50  0000 C CNN
F 1 "10K" V 9300 3600 50  0000 C CNN
F 2 "Resistors_SMD:R_1206_HandSoldering" V 9230 3600 50  0001 C CNN
F 3 "" H 9300 3600 50  0000 C CNN
	1    9300 3600
	1    0    0    -1  
$EndComp
Entry Wire Line
	9850 4050 9950 3950
Wire Wire Line
	9850 4050 9300 4050
Wire Wire Line
	9300 4050 9300 3750
Text Label 9600 4050 0    60   ~ 0
P18
Wire Wire Line
	9300 3350 9300 3450
Wire Wire Line
	8500 3350 9500 3350
$Comp
L R R3
U 1 1 5D5C1696
P 9100 3600
F 0 "R3" V 9180 3600 50  0000 C CNN
F 1 "10K" V 9100 3600 50  0000 C CNN
F 2 "Resistors_SMD:R_1206_HandSoldering" V 9030 3600 50  0001 C CNN
F 3 "" H 9100 3600 50  0000 C CNN
	1    9100 3600
	1    0    0    -1  
$EndComp
Entry Wire Line
	9850 4150 9950 4050
Wire Wire Line
	9850 4150 9100 4150
Wire Wire Line
	9100 4150 9100 3750
Text Label 9600 4150 0    60   ~ 0
P19
Wire Wire Line
	9100 3350 9100 3450
$Comp
L R R4
U 1 1 5D5C1B79
P 8900 3600
F 0 "R4" V 8980 3600 50  0000 C CNN
F 1 "10K" V 8900 3600 50  0000 C CNN
F 2 "Resistors_SMD:R_1206_HandSoldering" V 8830 3600 50  0001 C CNN
F 3 "" H 8900 3600 50  0000 C CNN
	1    8900 3600
	1    0    0    -1  
$EndComp
Entry Wire Line
	9850 4250 9950 4150
Wire Wire Line
	9850 4250 8900 4250
Wire Wire Line
	8900 4250 8900 3750
Wire Wire Line
	8900 3450 8900 3350
Connection ~ 9100 3350
Text Label 9600 4250 0    60   ~ 0
P20
$Comp
L R R5
U 1 1 5D5C2127
P 8700 3600
F 0 "R5" V 8780 3600 50  0000 C CNN
F 1 "10K" V 8700 3600 50  0000 C CNN
F 2 "Resistors_SMD:R_1206_HandSoldering" V 8630 3600 50  0001 C CNN
F 3 "" H 8700 3600 50  0000 C CNN
	1    8700 3600
	1    0    0    -1  
$EndComp
Entry Wire Line
	9850 4350 9950 4250
Wire Wire Line
	9850 4350 8700 4350
Wire Wire Line
	8700 4350 8700 3750
Wire Wire Line
	8700 3450 8700 3350
Connection ~ 8900 3350
Connection ~ 9500 3350
Connection ~ 9300 3350
Text Label 9600 4350 0    60   ~ 0
P21
$Comp
L R R6
U 1 1 5D5C3564
P 8500 3600
F 0 "R6" V 8580 3600 50  0000 C CNN
F 1 "10K" V 8500 3600 50  0000 C CNN
F 2 "Resistors_SMD:R_1206_HandSoldering" V 8430 3600 50  0001 C CNN
F 3 "" H 8500 3600 50  0000 C CNN
	1    8500 3600
	1    0    0    -1  
$EndComp
Entry Wire Line
	9850 4450 9950 4350
Wire Wire Line
	9850 4450 8500 4450
Wire Wire Line
	8500 4450 8500 3750
Text Label 9600 4450 0    60   ~ 0
P22
Wire Wire Line
	8500 3450 8500 3350
Connection ~ 8700 3350
$EndSCHEMATC
