%!PS-Adobe-3.0
%%Creator: PCBNEW
%%CreationDate: Tue Aug 20 22:19:37 2019
%%Title: /home/forthnutter/git/usb-parallel/Gerber/propeller-drl_map.ps
%%Pages: 1
%%PageOrder: Ascend
%%BoundingBox: 0 0 596 842
%%DocumentMedia: A4 595 842 0 () ()
%%Orientation: Landscape
%%EndComments
%%BeginProlog
/line { newpath moveto lineto stroke } bind def
/cir0 { newpath 0 360 arc stroke } bind def
/cir1 { newpath 0 360 arc gsave fill grestore stroke } bind def
/cir2 { newpath 0 360 arc gsave fill grestore stroke } bind def
/arc0 { newpath arc stroke } bind def
/arc1 { newpath 4 index 4 index moveto arc closepath gsave fill
    grestore stroke } bind def
/arc2 { newpath 4 index 4 index moveto arc closepath gsave fill
    grestore stroke } bind def
/poly0 { stroke } bind def
/poly1 { closepath gsave fill grestore stroke } bind def
/poly2 { closepath gsave fill grestore stroke } bind def
/rect0 { rectstroke } bind def
/rect1 { rectfill } bind def
/rect2 { rectfill } bind def
/linemode0 { 0 setlinecap 0 setlinejoin 0 setlinewidth } bind def
/linemode1 { 1 setlinecap 1 setlinejoin } bind def
/dashedline { [200] 100 setdash } bind def
/solidline { [] 0 setdash } bind def
/phantomshow { moveto
    /KicadFont findfont 0.000001 scalefont setfont
    show } bind def
/textshow { gsave
    findfont exch scalefont setfont concat 1 scale 0 0 moveto show
    } bind def
/reencodefont {
  findfont dup length dict begin
  { 1 index /FID ne
    { def }
    { pop pop } ifelse
  } forall
  /Encoding ISOLatin1Encoding def
  currentdict
  end } bind def
/KicadFont /Helvetica reencodefont definefont pop
/KicadFont-Bold /Helvetica-Bold reencodefont definefont pop
/KicadFont-Oblique /Helvetica-Oblique reencodefont definefont pop
/KicadFont-BoldOblique /Helvetica-BoldOblique reencodefont definefont pop
%%EndProlog
%%Page: 1 1
%%BeginPageSetup
gsave
0.0072 0.0072 scale
linemode1
82680 0 translate 90 rotate
90.4937 setlinewidth
%%EndPageSetup
0 0 0 setrgbcolor
106.882 setlinewidth
newpath
32357.6 78689.6 moveto
32357.6 37062.4 lineto
stroke
0 0 0 setrgbcolor
newpath
84572.4 78689.6 moveto
32357.6 78689.6 lineto
stroke
0 0 0 setrgbcolor
newpath
84572.4 37062.4 moveto
84572.4 78689.6 lineto
stroke
0 0 0 setrgbcolor
newpath
32357.6 37062.4 moveto
84572.4 37062.4 lineto
stroke
78.7395 setlinewidth
newpath
39454.6 44896.9 moveto
39739.6 44611.9 lineto
stroke
newpath
39739.6 44896.9 moveto
39454.6 44611.9 lineto
stroke
newpath
41264.4 44354 moveto
41549.4 44068.9 lineto
stroke
newpath
41549.4 44354 moveto
41264.4 44068.9 lineto
stroke
newpath
43074.3 72497.5 moveto
43359.3 72212.5 lineto
stroke
newpath
43359.3 72497.5 moveto
43074.3 72212.5 lineto
stroke
newpath
43074.3 67520.3 moveto
43359.3 67235.3 lineto
stroke
newpath
43359.3 67520.3 moveto
43074.3 67235.3 lineto
stroke
newpath
43074.3 62905.2 moveto
43359.3 62620.1 lineto
stroke
newpath
43359.3 62905.2 moveto
43074.3 62620.1 lineto
stroke
newpath
43074.3 54489.3 moveto
43359.3 54204.2 lineto
stroke
newpath
43359.3 54489.3 moveto
43074.3 54204.2 lineto
stroke
newpath
43074.3 50598 moveto
43359.3 50313 lineto
stroke
newpath
43359.3 50598 moveto
43074.3 50313 lineto
stroke
newpath
43074.3 45801.9 moveto
43359.3 45516.8 lineto
stroke
newpath
43359.3 45801.9 moveto
43074.3 45516.8 lineto
stroke
newpath
43979.2 58652 moveto
44264.3 58366.9 lineto
stroke
newpath
44264.3 58652 moveto
43979.2 58366.9 lineto
stroke
newpath
43979.2 56118.1 moveto
44264.3 55833.1 lineto
stroke
newpath
44264.3 56118.1 moveto
43979.2 55833.1 lineto
stroke
newpath
44250.7 62000.2 moveto
44535.7 61715.2 lineto
stroke
newpath
44535.7 62000.2 moveto
44250.7 61715.2 lineto
stroke
newpath
44250.7 60190.4 moveto
44535.7 59905.3 lineto
stroke
newpath
44535.7 60190.4 moveto
44250.7 59905.3 lineto
stroke
newpath
44431.7 58199.5 moveto
44716.7 57914.5 lineto
stroke
newpath
44716.7 58199.5 moveto
44431.7 57914.5 lineto
stroke
newpath
44431.7 53584.3 moveto
44716.7 53299.3 lineto
stroke
newpath
44716.7 53584.3 moveto
44431.7 53299.3 lineto
stroke
newpath
44884.2 57747 moveto
45169.2 57462 lineto
stroke
newpath
45169.2 57747 moveto
44884.2 57462 lineto
stroke
newpath
44884.2 52136.4 moveto
45169.2 51851.4 lineto
stroke
newpath
45169.2 52136.4 moveto
44884.2 51851.4 lineto
stroke
newpath
45336.6 57294.6 moveto
45621.7 57009.5 lineto
stroke
newpath
45621.7 57294.6 moveto
45336.6 57009.5 lineto
stroke
newpath
45336.6 49421.6 moveto
45621.7 49136.6 lineto
stroke
newpath
45621.7 49421.6 moveto
45336.6 49136.6 lineto
stroke
newpath
45789.1 56842.1 moveto
46074.1 56557.1 lineto
stroke
newpath
46074.1 56842.1 moveto
45789.1 56557.1 lineto
stroke
newpath
45789.1 48245.2 moveto
46074.1 47960.2 lineto
stroke
newpath
46074.1 48245.2 moveto
45789.1 47960.2 lineto
stroke
newpath
46332.1 48697.7 moveto
46617.1 48412.6 lineto
stroke
newpath
46617.1 48697.7 moveto
46332.1 48412.6 lineto
stroke
newpath
46332.1 47430.7 moveto
46617.1 47145.7 lineto
stroke
newpath
46617.1 47430.7 moveto
46332.1 47145.7 lineto
stroke
newpath
49408.9 60642.8 moveto
49693.9 60357.8 lineto
stroke
newpath
49693.9 60642.8 moveto
49408.9 60357.8 lineto
stroke
newpath
49408.9 55484.7 moveto
49693.9 55199.7 lineto
stroke
newpath
49693.9 55484.7 moveto
49408.9 55199.7 lineto
stroke
newpath
54929 77022.2 moveto
55214 76737.2 lineto
stroke
newpath
55214 77022.2 moveto
54929 76737.2 lineto
stroke
newpath
54929 72497.5 moveto
55214 72212.5 lineto
stroke
newpath
55214 72497.5 moveto
54929 72212.5 lineto
stroke
newpath
54929 67520.3 moveto
55214 67235.3 lineto
stroke
newpath
55214 67520.3 moveto
54929 67235.3 lineto
stroke
newpath
54929 66434.4 moveto
55214 66149.4 lineto
stroke
newpath
55214 66434.4 moveto
54929 66149.4 lineto
stroke
newpath
54929 62905.2 moveto
55214 62620.1 lineto
stroke
newpath
55214 62905.2 moveto
54929 62620.1 lineto
stroke
newpath
54929 54489.3 moveto
55214 54204.2 lineto
stroke
newpath
55214 54489.3 moveto
54929 54204.2 lineto
stroke
newpath
54929 54036.8 moveto
55214 53751.8 lineto
stroke
newpath
55214 54036.8 moveto
54929 53751.8 lineto
stroke
newpath
54929 50598 moveto
55214 50313 lineto
stroke
newpath
55214 50598 moveto
54929 50313 lineto
stroke
newpath
54929 45801.9 moveto
55214 45516.8 lineto
stroke
newpath
55214 45801.9 moveto
54929 45516.8 lineto
stroke
newpath
54929 41910.6 moveto
55214 41625.6 lineto
stroke
newpath
55214 41910.6 moveto
54929 41625.6 lineto
stroke
newpath
55471.9 70144.7 moveto
55757 69859.6 lineto
stroke
newpath
55757 70144.7 moveto
55471.9 69859.6 lineto
stroke
newpath
55924.4 69601.7 moveto
56209.4 69316.7 lineto
stroke
newpath
56209.4 69601.7 moveto
55924.4 69316.7 lineto
stroke
newpath
56195.9 65258 moveto
56480.9 64973 lineto
stroke
newpath
56480.9 65258 moveto
56195.9 64973 lineto
stroke
newpath
56648.4 64805.5 moveto
56933.4 64520.5 lineto
stroke
newpath
56933.4 64805.5 moveto
56648.4 64520.5 lineto
stroke
newpath
57010.3 39919.8 moveto
57295.4 39634.8 lineto
stroke
newpath
57295.4 39919.8 moveto
57010.3 39634.8 lineto
stroke
newpath
57100.8 61638.3 moveto
57385.8 61353.2 lineto
stroke
newpath
57385.8 61638.3 moveto
57100.8 61353.2 lineto
stroke
newpath
57100.8 59737.9 moveto
57385.8 59452.9 lineto
stroke
newpath
57385.8 59737.9 moveto
57100.8 59452.9 lineto
stroke
newpath
57462.8 41729.6 moveto
57747.8 41444.6 lineto
stroke
newpath
57747.8 41729.6 moveto
57462.8 41444.6 lineto
stroke
newpath
57553.3 63448.1 moveto
57838.3 63163.1 lineto
stroke
newpath
57838.3 63448.1 moveto
57553.3 63163.1 lineto
stroke
newpath
57553.3 59285.4 moveto
57838.3 59000.4 lineto
stroke
newpath
57838.3 59285.4 moveto
57553.3 59000.4 lineto
stroke
newpath
57915.3 43539.5 moveto
58200.3 43254.5 lineto
stroke
newpath
58200.3 43539.5 moveto
57915.3 43254.5 lineto
stroke
newpath
58005.8 65258 moveto
58290.8 64973 lineto
stroke
newpath
58290.8 65258 moveto
58005.8 64973 lineto
stroke
newpath
58005.8 58833 moveto
58290.8 58547.9 lineto
stroke
newpath
58290.8 58833 moveto
58005.8 58547.9 lineto
stroke
newpath
58458.2 67067.9 moveto
58743.3 66782.9 lineto
stroke
newpath
58743.3 67067.9 moveto
58458.2 66782.9 lineto
stroke
newpath
58458.2 58290 moveto
58743.3 58005 lineto
stroke
newpath
58743.3 58290 moveto
58458.2 58005 lineto
stroke
newpath
58458.2 45349.4 moveto
58743.3 45064.4 lineto
stroke
newpath
58743.3 45349.4 moveto
58458.2 45064.4 lineto
stroke
newpath
58910.7 68877.8 moveto
59195.7 68592.7 lineto
stroke
newpath
59195.7 68877.8 moveto
58910.7 68592.7 lineto
stroke
newpath
58910.7 57837.5 moveto
59195.7 57552.5 lineto
stroke
newpath
59195.7 57837.5 moveto
58910.7 57552.5 lineto
stroke
newpath
58910.7 52679.4 moveto
59195.7 52394.4 lineto
stroke
newpath
59195.7 52679.4 moveto
58910.7 52394.4 lineto
stroke
newpath
58910.7 47159.3 moveto
59195.7 46874.2 lineto
stroke
newpath
59195.7 47159.3 moveto
58910.7 46874.2 lineto
stroke
newpath
59363.2 70687.6 moveto
59648.2 70402.6 lineto
stroke
newpath
59648.2 70687.6 moveto
59363.2 70402.6 lineto
stroke
newpath
59363.2 57385.1 moveto
59648.2 57100 lineto
stroke
newpath
59648.2 57385.1 moveto
59363.2 57100 lineto
stroke
newpath
59363.2 52226.9 moveto
59648.2 51941.9 lineto
stroke
newpath
59648.2 52226.9 moveto
59363.2 51941.9 lineto
stroke
newpath
59363.2 48969.1 moveto
59648.2 48684.1 lineto
stroke
newpath
59648.2 48969.1 moveto
59363.2 48684.1 lineto
stroke
newpath
59815.6 72497.5 moveto
60100.7 72212.5 lineto
stroke
newpath
60100.7 72497.5 moveto
59815.6 72212.5 lineto
stroke
newpath
59815.6 56932.6 moveto
60100.7 56647.6 lineto
stroke
newpath
60100.7 56932.6 moveto
59815.6 56647.6 lineto
stroke
newpath
59815.6 50779 moveto
60100.7 50494 lineto
stroke
newpath
60100.7 50779 moveto
59815.6 50494 lineto
stroke
newpath
59815.6 44082.5 moveto
60100.7 43797.5 lineto
stroke
newpath
60100.7 44082.5 moveto
59815.6 43797.5 lineto
stroke
newpath
60268.1 74307.4 moveto
60553.1 74022.4 lineto
stroke
newpath
60553.1 74307.4 moveto
60268.1 74022.4 lineto
stroke
newpath
60268.1 56480.1 moveto
60553.1 56195.1 lineto
stroke
newpath
60553.1 56480.1 moveto
60268.1 56195.1 lineto
stroke
newpath
60268.1 52588.9 moveto
60553.1 52303.9 lineto
stroke
newpath
60553.1 52588.9 moveto
60268.1 52303.9 lineto
stroke
newpath
60268.1 43087 moveto
60553.1 42802 lineto
stroke
newpath
60553.1 43087 moveto
60268.1 42802 lineto
stroke
newpath
64792.8 46163.8 moveto
65077.8 45878.8 lineto
stroke
newpath
65077.8 46163.8 moveto
64792.8 45878.8 lineto
stroke
newpath
64792.8 39919.8 moveto
65077.8 39634.8 lineto
stroke
newpath
65077.8 39919.8 moveto
64792.8 39634.8 lineto
stroke
newpath
65245.3 60733.3 moveto
65530.3 60448.3 lineto
stroke
newpath
65530.3 60733.3 moveto
65245.3 60448.3 lineto
stroke
newpath
65245.3 41729.6 moveto
65530.3 41444.6 lineto
stroke
newpath
65530.3 41729.6 moveto
65245.3 41444.6 lineto
stroke
newpath
65697.7 43539.5 moveto
65982.7 43254.5 lineto
stroke
newpath
65982.7 43539.5 moveto
65697.7 43254.5 lineto
stroke
newpath
65697.7 42634.6 moveto
65982.7 42349.6 lineto
stroke
newpath
65982.7 42634.6 moveto
65697.7 42349.6 lineto
stroke
newpath
66150.2 51684 moveto
66435.2 51398.9 lineto
stroke
newpath
66435.2 51684 moveto
66150.2 51398.9 lineto
stroke
newpath
66150.2 45349.4 moveto
66435.2 45064.4 lineto
stroke
newpath
66435.2 45349.4 moveto
66150.2 45064.4 lineto
stroke
newpath
66421.7 75936.3 moveto
66706.7 75651.2 lineto
stroke
newpath
66706.7 75936.3 moveto
66421.7 75651.2 lineto
stroke
newpath
66421.7 54398.8 moveto
66706.7 54113.7 lineto
stroke
newpath
66706.7 54398.8 moveto
66421.7 54113.7 lineto
stroke
newpath
66602.7 50779 moveto
66887.7 50494 lineto
stroke
newpath
66887.7 50779 moveto
66602.7 50494 lineto
stroke
newpath
66602.7 48064.2 moveto
66887.7 47779.2 lineto
stroke
newpath
66887.7 48064.2 moveto
66602.7 47779.2 lineto
stroke
newpath
67055.1 57113.6 moveto
67340.2 56828.6 lineto
stroke
newpath
67340.2 57113.6 moveto
67055.1 56828.6 lineto
stroke
newpath
67055.1 56208.6 moveto
67340.2 55923.6 lineto
stroke
newpath
67340.2 56208.6 moveto
67055.1 55923.6 lineto
stroke
newpath
67507.6 64353.1 moveto
67792.6 64068 lineto
stroke
newpath
67792.6 64353.1 moveto
67507.6 64068 lineto
stroke
newpath
67507.6 47159.3 moveto
67792.6 46874.2 lineto
stroke
newpath
67792.6 47159.3 moveto
67507.6 46874.2 lineto
stroke
newpath
69498.5 69239.7 moveto
69783.5 68954.7 lineto
stroke
newpath
69783.5 69239.7 moveto
69498.5 68954.7 lineto
stroke
newpath
69498.5 48969.1 moveto
69783.5 48684.1 lineto
stroke
newpath
69783.5 48969.1 moveto
69498.5 48684.1 lineto
stroke
newpath
70041.4 55303.7 moveto
70326.4 55018.7 lineto
stroke
newpath
70326.4 55303.7 moveto
70041.4 55018.7 lineto
stroke
newpath
70041.4 52588.9 moveto
70326.4 52303.9 lineto
stroke
newpath
70326.4 52588.9 moveto
70041.4 52303.9 lineto
stroke
newpath
70584.4 53493.8 moveto
70869.4 53208.8 lineto
stroke
newpath
70869.4 53493.8 moveto
70584.4 53208.8 lineto
stroke
newpath
70584.4 47159.3 moveto
70869.4 46874.2 lineto
stroke
newpath
70869.4 47159.3 moveto
70584.4 46874.2 lineto
stroke
newpath
75109.1 63448.1 moveto
75394.1 63163.1 lineto
stroke
newpath
75394.1 63448.1 moveto
75109.1 63163.1 lineto
stroke
newpath
75109.1 55303.7 moveto
75394.1 55018.7 lineto
stroke
newpath
75394.1 55303.7 moveto
75109.1 55018.7 lineto
stroke
newpath
75561.5 61638.3 moveto
75846.6 61353.2 lineto
stroke
newpath
75846.6 61638.3 moveto
75561.5 61353.2 lineto
stroke
newpath
75561.5 53493.8 moveto
75846.6 53208.8 lineto
stroke
newpath
75846.6 53493.8 moveto
75561.5 53208.8 lineto
stroke
newpath
76195 68244.3 moveto
76480 67959.3 lineto
stroke
newpath
76480 68244.3 moveto
76195 67959.3 lineto
stroke
newpath
76195 63448.1 moveto
76480 63163.1 lineto
stroke
newpath
76480 63448.1 moveto
76195 63163.1 lineto
stroke
newpath
76195 59828.4 moveto
76480 59543.4 lineto
stroke
newpath
76480 59828.4 moveto
76195 59543.4 lineto
stroke
newpath
76195 77022.2 moveto
76480 76737.2 lineto
stroke
newpath
76480 77022.2 moveto
76195 76737.2 lineto
stroke
newpath
77009.4 47159.3 moveto
77294.5 46874.2 lineto
stroke
newpath
77294.5 47159.3 moveto
77009.4 46874.2 lineto
stroke
newpath
77009.4 41729.6 moveto
77294.5 41444.6 lineto
stroke
newpath
77294.5 41729.6 moveto
77009.4 41444.6 lineto
stroke
newpath
77461.9 77746.1 moveto
77746.9 77461.1 lineto
stroke
newpath
77746.9 77746.1 moveto
77461.9 77461.1 lineto
stroke
newpath
77461.9 70506.6 moveto
77746.9 70221.6 lineto
stroke
newpath
77746.9 70506.6 moveto
77461.9 70221.6 lineto
stroke
newpath
77461.9 58018.5 moveto
77746.9 57733.5 lineto
stroke
newpath
77746.9 58018.5 moveto
77461.9 57733.5 lineto
stroke
newpath
77461.9 61638.3 moveto
77746.9 61353.2 lineto
stroke
newpath
77746.9 61638.3 moveto
77461.9 61353.2 lineto
stroke
newpath
78366.8 75936.3 moveto
78651.9 75651.2 lineto
stroke
newpath
78651.9 75936.3 moveto
78366.8 75651.2 lineto
stroke
newpath
79362.3 45349.4 moveto
79647.3 45064.4 lineto
stroke
newpath
79647.3 45349.4 moveto
79362.3 45064.4 lineto
stroke
newpath
80719.7 43539.5 moveto
81004.7 43254.5 lineto
stroke
newpath
81004.7 43539.5 moveto
80719.7 43254.5 lineto
stroke
62220.5 74164.9 285.02 cir0
62220.5 72355 285.02 cir0
62220.5 70545.1 285.02 cir0
62220.5 68735.2 285.02 cir0
62220.5 66925.4 285.02 cir0
62220.5 65115.5 285.02 cir0
62220.5 63305.6 285.02 cir0
62220.5 61495.7 285.02 cir0
62220.5 59685.9 285.02 cir0
62220.5 57876 285.02 cir0
62220.5 56066.1 285.02 cir0
62220.5 54256.3 285.02 cir0
62220.5 52446.4 285.02 cir0
62220.5 50636.5 285.02 cir0
62220.5 48826.6 285.02 cir0
62220.5 47016.8 285.02 cir0
62220.5 45206.9 285.02 cir0
62220.5 43397 285.02 cir0
62220.5 41587.1 285.02 cir0
62220.5 39777.3 285.02 cir0
73079.7 74164.9 285.02 cir0
73079.7 72355 285.02 cir0
73079.7 70545.1 285.02 cir0
73079.7 68735.2 285.02 cir0
73079.7 66925.4 285.02 cir0
73079.7 65115.5 285.02 cir0
73079.7 63305.6 285.02 cir0
73079.7 61495.7 285.02 cir0
73079.7 59685.9 285.02 cir0
73079.7 57876 285.02 cir0
73079.7 56066.1 285.02 cir0
73079.7 54256.3 285.02 cir0
73079.7 52446.4 285.02 cir0
73079.7 50636.5 285.02 cir0
73079.7 48826.6 285.02 cir0
73079.7 47016.8 285.02 cir0
73079.7 45206.9 285.02 cir0
73079.7 43397 285.02 cir0
73079.7 41587.1 285.02 cir0
73079.7 39777.3 285.02 cir0
newpath
39597.1 69097.2 moveto
39597.1 68373.3 lineto
stroke
newpath
39235.1 68735.2 moveto
39959 68735.2 lineto
stroke
newpath
39597.1 67106.4 moveto
39597.1 66382.4 lineto
stroke
newpath
39235.1 66744.4 moveto
39959 66744.4 lineto
stroke
newpath
39597.1 65151.7 moveto
39597.1 64427.7 lineto
stroke
newpath
39235.1 64789.7 moveto
39959 64789.7 lineto
stroke
newpath
39597.1 63233.2 moveto
39597.1 62509.3 lineto
stroke
newpath
39235.1 62871.3 moveto
39959 62871.3 lineto
stroke
newpath
39597.1 61206.2 moveto
39597.1 60482.2 lineto
stroke
newpath
39235.1 60844.2 moveto
39959 60844.2 lineto
stroke
newpath
39597.1 59251.5 moveto
39597.1 58527.6 lineto
stroke
newpath
39235.1 58889.5 moveto
39959 58889.5 lineto
stroke
newpath
39597.1 57296.8 moveto
39597.1 56572.9 lineto
stroke
newpath
39235.1 56934.9 moveto
39959 56934.9 lineto
stroke
newpath
39597.1 55306 moveto
39597.1 54582 lineto
stroke
newpath
39235.1 54944 moveto
39959 54944 lineto
stroke
newpath
39597.1 53351.3 moveto
39597.1 52627.4 lineto
stroke
newpath
39235.1 52989.3 moveto
39959 52989.3 lineto
stroke
newpath
39597.1 51396.7 moveto
39597.1 50672.7 lineto
stroke
newpath
39235.1 51034.7 moveto
39959 51034.7 lineto
stroke
newpath
39597.1 49405.8 moveto
39597.1 48681.8 lineto
stroke
newpath
39235.1 49043.8 moveto
39959 49043.8 lineto
stroke
newpath
39597.1 47595.9 moveto
39597.1 46872 lineto
stroke
newpath
39235.1 47233.9 moveto
39959 47233.9 lineto
stroke
newpath
41406.9 70092.6 moveto
41406.9 69368.7 lineto
stroke
newpath
41045 69730.7 moveto
41768.9 69730.7 lineto
stroke
newpath
41406.9 68101.8 moveto
41406.9 67377.8 lineto
stroke
newpath
41045 67739.8 moveto
41768.9 67739.8 lineto
stroke
newpath
41406.9 66110.9 moveto
41406.9 65387 lineto
stroke
newpath
41045 65749 moveto
41768.9 65749 lineto
stroke
newpath
41406.9 64210.6 moveto
41406.9 63486.6 lineto
stroke
newpath
41045 63848.6 moveto
41768.9 63848.6 lineto
stroke
newpath
41406.9 62219.7 moveto
41406.9 61495.7 lineto
stroke
newpath
41045 61857.7 moveto
41768.9 61857.7 lineto
stroke
newpath
41406.9 60228.8 moveto
41406.9 59504.9 lineto
stroke
newpath
41045 59866.9 moveto
41768.9 59866.9 lineto
stroke
newpath
41406.9 58238 moveto
41406.9 57514 lineto
stroke
newpath
41045 57876 moveto
41768.9 57876 lineto
stroke
newpath
41406.9 56337.6 moveto
41406.9 55613.7 lineto
stroke
newpath
41045 55975.6 moveto
41768.9 55975.6 lineto
stroke
newpath
41406.9 54346.7 moveto
41406.9 53622.8 lineto
stroke
newpath
41045 53984.8 moveto
41768.9 53984.8 lineto
stroke
newpath
41406.9 52355.9 moveto
41406.9 51631.9 lineto
stroke
newpath
41045 51993.9 moveto
41768.9 51993.9 lineto
stroke
newpath
41406.9 50365 moveto
41406.9 49641.1 lineto
stroke
newpath
41045 50003 moveto
41768.9 50003 lineto
stroke
newpath
41406.9 48464.7 moveto
41406.9 47740.7 lineto
stroke
newpath
41045 48102.7 moveto
41768.9 48102.7 lineto
stroke
newpath
41406.9 46473.8 moveto
41406.9 45749.8 lineto
stroke
newpath
41045 46111.8 moveto
41768.9 46111.8 lineto
stroke
newpath
80862.2 65477.5 moveto
80862.2 64753.5 lineto
stroke
newpath
80500.2 65115.5 moveto
81224.2 65115.5 lineto
stroke
newpath
80862.2 63667.6 moveto
80862.2 62943.6 lineto
stroke
newpath
80500.2 63305.6 moveto
81224.2 63305.6 lineto
stroke
newpath
80862.2 61857.7 moveto
80862.2 61133.8 lineto
stroke
newpath
80500.2 61495.7 moveto
81224.2 61495.7 lineto
stroke
newpath
80862.2 60047.8 moveto
80862.2 59323.9 lineto
stroke
newpath
80500.2 59685.9 moveto
81224.2 59685.9 lineto
stroke
newpath
80862.2 58238 moveto
80862.2 57514 lineto
stroke
newpath
80500.2 57876 moveto
81224.2 57876 lineto
stroke
newpath
80862.2 56428.1 moveto
80862.2 55704.2 lineto
stroke
newpath
80500.2 56066.1 moveto
81224.2 56066.1 lineto
stroke
newpath
80862.2 54618.2 moveto
80862.2 53894.3 lineto
stroke
newpath
80500.2 54256.3 moveto
81224.2 54256.3 lineto
stroke
newpath
80862.2 52808.4 moveto
80862.2 52084.4 lineto
stroke
newpath
80500.2 52446.4 moveto
81224.2 52446.4 lineto
stroke
newpath
80862.2 50998.5 moveto
80862.2 50274.5 lineto
stroke
newpath
80500.2 50636.5 moveto
81224.2 50636.5 lineto
stroke
newpath
80862.2 49188.6 moveto
80862.2 48464.7 lineto
stroke
newpath
80500.2 48826.6 moveto
81224.2 48826.6 lineto
stroke
newpath
82672.1 65477.5 moveto
82672.1 64753.5 lineto
stroke
newpath
82310.1 65115.5 moveto
83034 65115.5 lineto
stroke
newpath
82672.1 63667.6 moveto
82672.1 62943.6 lineto
stroke
newpath
82310.1 63305.6 moveto
83034 63305.6 lineto
stroke
newpath
82672.1 61857.7 moveto
82672.1 61133.8 lineto
stroke
newpath
82310.1 61495.7 moveto
83034 61495.7 lineto
stroke
newpath
82672.1 60047.8 moveto
82672.1 59323.9 lineto
stroke
newpath
82310.1 59685.9 moveto
83034 59685.9 lineto
stroke
newpath
82672.1 58238 moveto
82672.1 57514 lineto
stroke
newpath
82310.1 57876 moveto
83034 57876 lineto
stroke
newpath
82672.1 56428.1 moveto
82672.1 55704.2 lineto
stroke
newpath
82310.1 56066.1 moveto
83034 56066.1 lineto
stroke
newpath
82672.1 54618.2 moveto
82672.1 53894.3 lineto
stroke
newpath
82310.1 54256.3 moveto
83034 54256.3 lineto
stroke
newpath
82672.1 52808.4 moveto
82672.1 52084.4 lineto
stroke
newpath
82310.1 52446.4 moveto
83034 52446.4 lineto
stroke
newpath
82672.1 50998.5 moveto
82672.1 50274.5 lineto
stroke
newpath
82310.1 50636.5 moveto
83034 50636.5 lineto
stroke
newpath
82672.1 49188.6 moveto
82672.1 48464.7 lineto
stroke
newpath
82310.1 48826.6 moveto
83034 48826.6 lineto
stroke
newpath
40364.9 73849.5 moveto
40364.9 75385.2 lineto
38829.2 75385.2 lineto
38829.2 73849.5 lineto
40364.9 73849.5 lineto
poly0
newpath
40364.9 40366.8 moveto
40364.9 41902.5 lineto
38829.2 41902.5 lineto
38829.2 40366.8 lineto
40364.9 40366.8 lineto
poly0
newpath
45794.6 75206.9 moveto
45794.6 76742.6 lineto
44258.8 76742.6 lineto
44258.8 75206.9 lineto
45794.6 75206.9 lineto
poly0
newpath
45794.6 39009.4 moveto
45794.6 40545.1 lineto
44258.8 40545.1 lineto
44258.8 39009.4 lineto
45794.6 39009.4 lineto
poly0
newpath
81992 75206.9 moveto
81992 76742.6 lineto
80456.3 76742.6 lineto
80456.3 75206.9 lineto
81992 75206.9 lineto
poly0
newpath
81992 39009.4 moveto
81992 40545.1 lineto
80456.3 40545.1 lineto
80456.3 39009.4 lineto
81992 39009.4 lineto
poly0
118.11 setlinewidth
newpath
33372.7 35175.5 moveto
33372.7 36356.6 lineto
33654 36356.6 lineto
33822.7 36300.3 lineto
33935.2 36187.9 lineto
33991.4 36075.4 lineto
34047.7 35850.4 lineto
34047.7 35681.7 lineto
33991.4 35456.7 lineto
33935.2 35344.2 lineto
33822.7 35231.7 lineto
33654 35175.5 lineto
33372.7 35175.5 lineto
stroke
newpath
34553.8 35175.5 moveto
34553.8 35962.9 lineto
stroke
newpath
34553.8 35737.9 moveto
34610.1 35850.4 lineto
34666.3 35906.6 lineto
34778.8 35962.9 lineto
34891.3 35962.9 lineto
stroke
newpath
35285 35175.5 moveto
35285 35962.9 lineto
stroke
newpath
35285 36356.6 moveto
35228.8 36300.3 lineto
35285 36244.1 lineto
35341.2 36300.3 lineto
35285 36356.6 lineto
35285 36244.1 lineto
stroke
newpath
36016.2 35175.5 moveto
35903.7 35231.7 lineto
35847.4 35344.2 lineto
35847.4 36356.6 lineto
stroke
newpath
36634.8 35175.5 moveto
36522.3 35231.7 lineto
36466.1 35344.2 lineto
36466.1 36356.6 lineto
stroke
newpath
37984.7 35175.5 moveto
37984.7 36356.6 lineto
38378.4 35512.9 lineto
38772.1 36356.6 lineto
38772.1 35175.5 lineto
stroke
newpath
39840.7 35175.5 moveto
39840.7 35794.2 lineto
39784.4 35906.6 lineto
39672 35962.9 lineto
39447 35962.9 lineto
39334.5 35906.6 lineto
stroke
newpath
39840.7 35231.7 moveto
39728.2 35175.5 lineto
39447 35175.5 lineto
39334.5 35231.7 lineto
39278.3 35344.2 lineto
39278.3 35456.7 lineto
39334.5 35569.2 lineto
39447 35625.4 lineto
39728.2 35625.4 lineto
39840.7 35681.7 lineto
stroke
newpath
40403.1 35962.9 moveto
40403.1 34781.8 lineto
stroke
newpath
40403.1 35906.6 moveto
40515.6 35962.9 lineto
40740.6 35962.9 lineto
40853.1 35906.6 lineto
40909.3 35850.4 lineto
40965.5 35737.9 lineto
40965.5 35400.5 lineto
40909.3 35288 lineto
40853.1 35231.7 lineto
40740.6 35175.5 lineto
40515.6 35175.5 lineto
40403.1 35231.7 lineto
stroke
newpath
41471.7 35288 moveto
41528 35231.7 lineto
41471.7 35175.5 lineto
41415.5 35231.7 lineto
41471.7 35288 lineto
41471.7 35175.5 lineto
stroke
newpath
41471.7 35906.6 moveto
41528 35850.4 lineto
41471.7 35794.2 lineto
41415.5 35850.4 lineto
41471.7 35906.6 lineto
41471.7 35794.2 lineto
stroke
newpath
32019.1 33372 moveto
32304.1 33087 lineto
stroke
newpath
32304.1 33372 moveto
32019.1 33087 lineto
stroke
newpath
33597.7 33876.3 moveto
33710.2 33876.3 lineto
33822.7 33820 lineto
33878.9 33763.8 lineto
33935.2 33651.3 lineto
33991.4 33426.3 lineto
33991.4 33145.1 lineto
33935.2 32920.1 lineto
33878.9 32807.7 lineto
33822.7 32751.4 lineto
33710.2 32695.2 lineto
33597.7 32695.2 lineto
33485.2 32751.4 lineto
33429 32807.7 lineto
33372.7 32920.1 lineto
33316.5 33145.1 lineto
33316.5 33426.3 lineto
33372.7 33651.3 lineto
33429 33763.8 lineto
33485.2 33820 lineto
33597.7 33876.3 lineto
stroke
newpath
34497.6 32807.7 moveto
34553.8 32751.4 lineto
34497.6 32695.2 lineto
34441.4 32751.4 lineto
34497.6 32807.7 lineto
34497.6 32695.2 lineto
stroke
newpath
35566.2 33482.6 moveto
35566.2 32695.2 lineto
stroke
newpath
35285 33932.5 moveto
35003.8 33088.9 lineto
35734.9 33088.9 lineto
stroke
newpath
36409.9 33876.3 moveto
36522.3 33876.3 lineto
36634.8 33820 lineto
36691.1 33763.8 lineto
36747.3 33651.3 lineto
36803.6 33426.3 lineto
36803.6 33145.1 lineto
36747.3 32920.1 lineto
36691.1 32807.7 lineto
36634.8 32751.4 lineto
36522.3 32695.2 lineto
36409.9 32695.2 lineto
36297.4 32751.4 lineto
36241.1 32807.7 lineto
36184.9 32920.1 lineto
36128.6 33145.1 lineto
36128.6 33426.3 lineto
36184.9 33651.3 lineto
36241.1 33763.8 lineto
36297.4 33820 lineto
36409.9 33876.3 lineto
stroke
newpath
37309.8 32695.2 moveto
37309.8 33482.6 lineto
stroke
newpath
37309.8 33370.1 moveto
37366 33426.3 lineto
37478.5 33482.6 lineto
37647.2 33482.6 lineto
37759.7 33426.3 lineto
37815.9 33313.8 lineto
37815.9 32695.2 lineto
stroke
newpath
37815.9 33313.8 moveto
37872.2 33426.3 lineto
37984.7 33482.6 lineto
38153.4 33482.6 lineto
38265.9 33426.3 lineto
38322.1 33313.8 lineto
38322.1 32695.2 lineto
stroke
newpath
38884.6 32695.2 moveto
38884.6 33482.6 lineto
stroke
newpath
38884.6 33370.1 moveto
38940.8 33426.3 lineto
39053.3 33482.6 lineto
39222 33482.6 lineto
39334.5 33426.3 lineto
39390.7 33313.8 lineto
39390.7 32695.2 lineto
stroke
newpath
39390.7 33313.8 moveto
39447 33426.3 lineto
39559.5 33482.6 lineto
39728.2 33482.6 lineto
39840.7 33426.3 lineto
39896.9 33313.8 lineto
39896.9 32695.2 lineto
stroke
newpath
42202.9 33932.5 moveto
41190.5 32414 lineto
stroke
newpath
43721.5 33876.3 moveto
43833.9 33876.3 lineto
43946.4 33820 lineto
44002.7 33763.8 lineto
44058.9 33651.3 lineto
44115.2 33426.3 lineto
44115.2 33145.1 lineto
44058.9 32920.1 lineto
44002.7 32807.7 lineto
43946.4 32751.4 lineto
43833.9 32695.2 lineto
43721.5 32695.2 lineto
43609 32751.4 lineto
43552.7 32807.7 lineto
43496.5 32920.1 lineto
43440.2 33145.1 lineto
43440.2 33426.3 lineto
43496.5 33651.3 lineto
43552.7 33763.8 lineto
43609 33820 lineto
43721.5 33876.3 lineto
stroke
newpath
44621.3 32807.7 moveto
44677.6 32751.4 lineto
44621.3 32695.2 lineto
44565.1 32751.4 lineto
44621.3 32807.7 lineto
44621.3 32695.2 lineto
stroke
newpath
45408.7 33876.3 moveto
45521.2 33876.3 lineto
45633.7 33820 lineto
45690 33763.8 lineto
45746.2 33651.3 lineto
45802.4 33426.3 lineto
45802.4 33145.1 lineto
45746.2 32920.1 lineto
45690 32807.7 lineto
45633.7 32751.4 lineto
45521.2 32695.2 lineto
45408.7 32695.2 lineto
45296.3 32751.4 lineto
45240 32807.7 lineto
45183.8 32920.1 lineto
45127.5 33145.1 lineto
45127.5 33426.3 lineto
45183.8 33651.3 lineto
45240 33763.8 lineto
45296.3 33820 lineto
45408.7 33876.3 lineto
stroke
newpath
46927.3 32695.2 moveto
46252.4 32695.2 lineto
stroke
newpath
46589.8 32695.2 moveto
46589.8 33876.3 lineto
46477.4 33707.5 lineto
46364.9 33595.1 lineto
46252.4 33538.8 lineto
stroke
newpath
47939.7 33876.3 moveto
47714.7 33876.3 lineto
47602.2 33820 lineto
47546 33763.8 lineto
47433.5 33595.1 lineto
47377.2 33370.1 lineto
47377.2 32920.1 lineto
47433.5 32807.7 lineto
47489.7 32751.4 lineto
47602.2 32695.2 lineto
47827.2 32695.2 lineto
47939.7 32751.4 lineto
47995.9 32807.7 lineto
48052.2 32920.1 lineto
48052.2 33201.4 lineto
47995.9 33313.8 lineto
47939.7 33370.1 lineto
47827.2 33426.3 lineto
47602.2 33426.3 lineto
47489.7 33370.1 lineto
47433.5 33313.8 lineto
47377.2 33201.4 lineto
stroke
newpath
48502.1 33876.3 moveto
48502.1 33651.3 lineto
stroke
newpath
48952 33876.3 moveto
48952 33651.3 lineto
stroke
newpath
50695.6 32245.2 moveto
50639.3 32301.5 lineto
50526.9 32470.2 lineto
50470.6 32582.7 lineto
50414.4 32751.4 lineto
50358.1 33032.6 lineto
50358.1 33257.6 lineto
50414.4 33538.8 lineto
50470.6 33707.5 lineto
50526.9 33820 lineto
50639.3 33988.8 lineto
50695.6 34045 lineto
stroke
newpath
51764.2 32695.2 moveto
51089.3 32695.2 lineto
stroke
newpath
51426.7 32695.2 moveto
51426.7 33876.3 lineto
51314.3 33707.5 lineto
51201.8 33595.1 lineto
51089.3 33538.8 lineto
stroke
newpath
52495.4 33876.3 moveto
52607.8 33876.3 lineto
52720.3 33820 lineto
52776.6 33763.8 lineto
52832.8 33651.3 lineto
52889.1 33426.3 lineto
52889.1 33145.1 lineto
52832.8 32920.1 lineto
52776.6 32807.7 lineto
52720.3 32751.4 lineto
52607.8 32695.2 lineto
52495.4 32695.2 lineto
52382.9 32751.4 lineto
52326.6 32807.7 lineto
52270.4 32920.1 lineto
52214.1 33145.1 lineto
52214.1 33426.3 lineto
52270.4 33651.3 lineto
52326.6 33763.8 lineto
52382.9 33820 lineto
52495.4 33876.3 lineto
stroke
newpath
53957.7 33876.3 moveto
53395.2 33876.3 lineto
53339 33313.8 lineto
53395.2 33370.1 lineto
53507.7 33426.3 lineto
53788.9 33426.3 lineto
53901.4 33370.1 lineto
53957.7 33313.8 lineto
54013.9 33201.4 lineto
54013.9 32920.1 lineto
53957.7 32807.7 lineto
53901.4 32751.4 lineto
53788.9 32695.2 lineto
53507.7 32695.2 lineto
53395.2 32751.4 lineto
53339 32807.7 lineto
stroke
newpath
55420 32695.2 moveto
55420 33876.3 lineto
stroke
newpath
55926.2 32695.2 moveto
55926.2 33313.8 lineto
55869.9 33426.3 lineto
55757.4 33482.6 lineto
55588.7 33482.6 lineto
55476.2 33426.3 lineto
55420 33370.1 lineto
stroke
newpath
56657.3 32695.2 moveto
56544.8 32751.4 lineto
56488.6 32807.7 lineto
56432.4 32920.1 lineto
56432.4 33257.6 lineto
56488.6 33370.1 lineto
56544.8 33426.3 lineto
56657.3 33482.6 lineto
56826.1 33482.6 lineto
56938.5 33426.3 lineto
56994.8 33370.1 lineto
57051 33257.6 lineto
57051 32920.1 lineto
56994.8 32807.7 lineto
56938.5 32751.4 lineto
56826.1 32695.2 lineto
56657.3 32695.2 lineto
stroke
newpath
57726 32695.2 moveto
57613.5 32751.4 lineto
57557.2 32863.9 lineto
57557.2 33876.3 lineto
stroke
newpath
58625.8 32751.4 moveto
58513.4 32695.2 lineto
58288.4 32695.2 lineto
58175.9 32751.4 lineto
58119.7 32863.9 lineto
58119.7 33313.8 lineto
58175.9 33426.3 lineto
58288.4 33482.6 lineto
58513.4 33482.6 lineto
58625.8 33426.3 lineto
58682.1 33313.8 lineto
58682.1 33201.4 lineto
58119.7 33088.9 lineto
stroke
newpath
59132 32751.4 moveto
59244.5 32695.2 lineto
59469.5 32695.2 lineto
59582 32751.4 lineto
59638.2 32863.9 lineto
59638.2 32920.1 lineto
59582 33032.6 lineto
59469.5 33088.9 lineto
59300.8 33088.9 lineto
59188.3 33145.1 lineto
59132 33257.6 lineto
59132 33313.8 lineto
59188.3 33426.3 lineto
59300.8 33482.6 lineto
59469.5 33482.6 lineto
59582 33426.3 lineto
stroke
newpath
60031.9 32245.2 moveto
60088.2 32301.5 lineto
60200.6 32470.2 lineto
60256.9 32582.7 lineto
60313.1 32751.4 lineto
60369.4 33032.6 lineto
60369.4 33257.6 lineto
60313.1 33538.8 lineto
60256.9 33707.5 lineto
60200.6 33820 lineto
60088.2 33988.8 lineto
60031.9 34045 lineto
stroke
32019.1 31670.4 285.02 cir0
newpath
33597.7 32317.2 moveto
33710.2 32317.2 lineto
33822.7 32261 lineto
33878.9 32204.7 lineto
33935.2 32092.2 lineto
33991.4 31867.3 lineto
33991.4 31586.1 lineto
33935.2 31361.1 lineto
33878.9 31248.6 lineto
33822.7 31192.4 lineto
33710.2 31136.1 lineto
33597.7 31136.1 lineto
33485.2 31192.4 lineto
33429 31248.6 lineto
33372.7 31361.1 lineto
33316.5 31586.1 lineto
33316.5 31867.3 lineto
33372.7 32092.2 lineto
33429 32204.7 lineto
33485.2 32261 lineto
33597.7 32317.2 lineto
stroke
newpath
34497.6 31248.6 moveto
34553.8 31192.4 lineto
34497.6 31136.1 lineto
34441.4 31192.4 lineto
34497.6 31248.6 lineto
34497.6 31136.1 lineto
stroke
newpath
35228.8 31811 moveto
35116.3 31867.3 lineto
35060 31923.5 lineto
35003.8 32036 lineto
35003.8 32092.2 lineto
35060 32204.7 lineto
35116.3 32261 lineto
35228.8 32317.2 lineto
35453.7 32317.2 lineto
35566.2 32261 lineto
35622.5 32204.7 lineto
35678.7 32092.2 lineto
35678.7 32036 lineto
35622.5 31923.5 lineto
35566.2 31867.3 lineto
35453.7 31811 lineto
35228.8 31811 lineto
35116.3 31754.8 lineto
35060 31698.5 lineto
35003.8 31586.1 lineto
35003.8 31361.1 lineto
35060 31248.6 lineto
35116.3 31192.4 lineto
35228.8 31136.1 lineto
35453.7 31136.1 lineto
35566.2 31192.4 lineto
35622.5 31248.6 lineto
35678.7 31361.1 lineto
35678.7 31586.1 lineto
35622.5 31698.5 lineto
35566.2 31754.8 lineto
35453.7 31811 lineto
stroke
newpath
36409.9 32317.2 moveto
36522.3 32317.2 lineto
36634.8 32261 lineto
36691.1 32204.7 lineto
36747.3 32092.2 lineto
36803.6 31867.3 lineto
36803.6 31586.1 lineto
36747.3 31361.1 lineto
36691.1 31248.6 lineto
36634.8 31192.4 lineto
36522.3 31136.1 lineto
36409.9 31136.1 lineto
36297.4 31192.4 lineto
36241.1 31248.6 lineto
36184.9 31361.1 lineto
36128.6 31586.1 lineto
36128.6 31867.3 lineto
36184.9 32092.2 lineto
36241.1 32204.7 lineto
36297.4 32261 lineto
36409.9 32317.2 lineto
stroke
newpath
37309.8 31136.1 moveto
37309.8 31923.5 lineto
stroke
newpath
37309.8 31811 moveto
37366 31867.3 lineto
37478.5 31923.5 lineto
37647.2 31923.5 lineto
37759.7 31867.3 lineto
37815.9 31754.8 lineto
37815.9 31136.1 lineto
stroke
newpath
37815.9 31754.8 moveto
37872.2 31867.3 lineto
37984.7 31923.5 lineto
38153.4 31923.5 lineto
38265.9 31867.3 lineto
38322.1 31754.8 lineto
38322.1 31136.1 lineto
stroke
newpath
38884.6 31136.1 moveto
38884.6 31923.5 lineto
stroke
newpath
38884.6 31811 moveto
38940.8 31867.3 lineto
39053.3 31923.5 lineto
39222 31923.5 lineto
39334.5 31867.3 lineto
39390.7 31754.8 lineto
39390.7 31136.1 lineto
stroke
newpath
39390.7 31754.8 moveto
39447 31867.3 lineto
39559.5 31923.5 lineto
39728.2 31923.5 lineto
39840.7 31867.3 lineto
39896.9 31754.8 lineto
39896.9 31136.1 lineto
stroke
newpath
42202.9 32373.5 moveto
41190.5 30854.9 lineto
stroke
newpath
43721.5 32317.2 moveto
43833.9 32317.2 lineto
43946.4 32261 lineto
44002.7 32204.7 lineto
44058.9 32092.2 lineto
44115.2 31867.3 lineto
44115.2 31586.1 lineto
44058.9 31361.1 lineto
44002.7 31248.6 lineto
43946.4 31192.4 lineto
43833.9 31136.1 lineto
43721.5 31136.1 lineto
43609 31192.4 lineto
43552.7 31248.6 lineto
43496.5 31361.1 lineto
43440.2 31586.1 lineto
43440.2 31867.3 lineto
43496.5 32092.2 lineto
43552.7 32204.7 lineto
43609 32261 lineto
43721.5 32317.2 lineto
stroke
newpath
44621.3 31248.6 moveto
44677.6 31192.4 lineto
44621.3 31136.1 lineto
44565.1 31192.4 lineto
44621.3 31248.6 lineto
44621.3 31136.1 lineto
stroke
newpath
45408.7 32317.2 moveto
45521.2 32317.2 lineto
45633.7 32261 lineto
45690 32204.7 lineto
45746.2 32092.2 lineto
45802.4 31867.3 lineto
45802.4 31586.1 lineto
45746.2 31361.1 lineto
45690 31248.6 lineto
45633.7 31192.4 lineto
45521.2 31136.1 lineto
45408.7 31136.1 lineto
45296.3 31192.4 lineto
45240 31248.6 lineto
45183.8 31361.1 lineto
45127.5 31586.1 lineto
45127.5 31867.3 lineto
45183.8 32092.2 lineto
45240 32204.7 lineto
45296.3 32261 lineto
45408.7 32317.2 lineto
stroke
newpath
46196.1 32317.2 moveto
46927.3 32317.2 lineto
46533.6 31867.3 lineto
46702.3 31867.3 lineto
46814.8 31811 lineto
46871.1 31754.8 lineto
46927.3 31642.3 lineto
46927.3 31361.1 lineto
46871.1 31248.6 lineto
46814.8 31192.4 lineto
46702.3 31136.1 lineto
46364.9 31136.1 lineto
46252.4 31192.4 lineto
46196.1 31248.6 lineto
stroke
newpath
48052.2 31136.1 moveto
47377.2 31136.1 lineto
stroke
newpath
47714.7 31136.1 moveto
47714.7 32317.2 lineto
47602.2 32148.5 lineto
47489.7 32036 lineto
47377.2 31979.8 lineto
stroke
newpath
48502.1 32317.2 moveto
48502.1 32092.2 lineto
stroke
newpath
48952 32317.2 moveto
48952 32092.2 lineto
stroke
newpath
50695.6 30686.2 moveto
50639.3 30742.4 lineto
50526.9 30911.1 lineto
50470.6 31023.6 lineto
50414.4 31192.4 lineto
50358.1 31473.6 lineto
50358.1 31698.5 lineto
50414.4 31979.8 lineto
50470.6 32148.5 lineto
50526.9 32261 lineto
50639.3 32429.7 lineto
50695.6 32485.9 lineto
stroke
newpath
51651.7 31923.5 moveto
51651.7 31136.1 lineto
stroke
newpath
51370.5 32373.5 moveto
51089.3 31529.8 lineto
51820.4 31529.8 lineto
stroke
newpath
52495.4 32317.2 moveto
52607.8 32317.2 lineto
52720.3 32261 lineto
52776.6 32204.7 lineto
52832.8 32092.2 lineto
52889.1 31867.3 lineto
52889.1 31586.1 lineto
52832.8 31361.1 lineto
52776.6 31248.6 lineto
52720.3 31192.4 lineto
52607.8 31136.1 lineto
52495.4 31136.1 lineto
52382.9 31192.4 lineto
52326.6 31248.6 lineto
52270.4 31361.1 lineto
52214.1 31586.1 lineto
52214.1 31867.3 lineto
52270.4 32092.2 lineto
52326.6 32204.7 lineto
52382.9 32261 lineto
52495.4 32317.2 lineto
stroke
newpath
54295.1 31136.1 moveto
54295.1 32317.2 lineto
stroke
newpath
54801.3 31136.1 moveto
54801.3 31754.8 lineto
54745.1 31867.3 lineto
54632.6 31923.5 lineto
54463.9 31923.5 lineto
54351.4 31867.3 lineto
54295.1 31811 lineto
stroke
newpath
55532.5 31136.1 moveto
55420 31192.4 lineto
55363.7 31248.6 lineto
55307.5 31361.1 lineto
55307.5 31698.5 lineto
55363.7 31811 lineto
55420 31867.3 lineto
55532.5 31923.5 lineto
55701.2 31923.5 lineto
55813.7 31867.3 lineto
55869.9 31811 lineto
55926.2 31698.5 lineto
55926.2 31361.1 lineto
55869.9 31248.6 lineto
55813.7 31192.4 lineto
55701.2 31136.1 lineto
55532.5 31136.1 lineto
stroke
newpath
56601.1 31136.1 moveto
56488.6 31192.4 lineto
56432.4 31304.8 lineto
56432.4 32317.2 lineto
stroke
newpath
57501 31192.4 moveto
57388.5 31136.1 lineto
57163.5 31136.1 lineto
57051 31192.4 lineto
56994.8 31304.8 lineto
56994.8 31754.8 lineto
57051 31867.3 lineto
57163.5 31923.5 lineto
57388.5 31923.5 lineto
57501 31867.3 lineto
57557.2 31754.8 lineto
57557.2 31642.3 lineto
56994.8 31529.8 lineto
stroke
newpath
58007.2 31192.4 moveto
58119.7 31136.1 lineto
58344.6 31136.1 lineto
58457.1 31192.4 lineto
58513.4 31304.8 lineto
58513.4 31361.1 lineto
58457.1 31473.6 lineto
58344.6 31529.8 lineto
58175.9 31529.8 lineto
58063.4 31586.1 lineto
58007.2 31698.5 lineto
58007.2 31754.8 lineto
58063.4 31867.3 lineto
58175.9 31923.5 lineto
58344.6 31923.5 lineto
58457.1 31867.3 lineto
stroke
newpath
58907.1 30686.2 moveto
58963.3 30742.4 lineto
59075.8 30911.1 lineto
59132 31023.6 lineto
59188.3 31192.4 lineto
59244.5 31473.6 lineto
59244.5 31698.5 lineto
59188.3 31979.8 lineto
59132 32148.5 lineto
59075.8 32261 lineto
58963.3 32429.7 lineto
58907.1 32485.9 lineto
stroke
newpath
31942.2 30473.3 moveto
31942.2 29749.4 lineto
stroke
newpath
31580.2 30111.4 moveto
32304.1 30111.4 lineto
stroke
newpath
33991.4 29577.1 moveto
33316.5 29577.1 lineto
stroke
newpath
33654 29577.1 moveto
33654 30758.2 lineto
33541.5 30589.4 lineto
33429 30477 lineto
33316.5 30420.7 lineto
stroke
newpath
34497.6 29689.5 moveto
34553.8 29633.3 lineto
34497.6 29577.1 lineto
34441.4 29633.3 lineto
34497.6 29689.5 lineto
34497.6 29577.1 lineto
stroke
newpath
35285 30758.2 moveto
35397.5 30758.2 lineto
35510 30701.9 lineto
35566.2 30645.7 lineto
35622.5 30533.2 lineto
35678.7 30308.2 lineto
35678.7 30027 lineto
35622.5 29802 lineto
35566.2 29689.5 lineto
35510 29633.3 lineto
35397.5 29577.1 lineto
35285 29577.1 lineto
35172.5 29633.3 lineto
35116.3 29689.5 lineto
35060 29802 lineto
35003.8 30027 lineto
35003.8 30308.2 lineto
35060 30533.2 lineto
35116.3 30645.7 lineto
35172.5 30701.9 lineto
35285 30758.2 lineto
stroke
newpath
36128.6 30645.7 moveto
36184.9 30701.9 lineto
36297.4 30758.2 lineto
36578.6 30758.2 lineto
36691.1 30701.9 lineto
36747.3 30645.7 lineto
36803.6 30533.2 lineto
36803.6 30420.7 lineto
36747.3 30252 lineto
36072.4 29577.1 lineto
36803.6 29577.1 lineto
stroke
newpath
37309.8 29577.1 moveto
37309.8 30364.5 lineto
stroke
newpath
37309.8 30252 moveto
37366 30308.2 lineto
37478.5 30364.5 lineto
37647.2 30364.5 lineto
37759.7 30308.2 lineto
37815.9 30195.7 lineto
37815.9 29577.1 lineto
stroke
newpath
37815.9 30195.7 moveto
37872.2 30308.2 lineto
37984.7 30364.5 lineto
38153.4 30364.5 lineto
38265.9 30308.2 lineto
38322.1 30195.7 lineto
38322.1 29577.1 lineto
stroke
newpath
38884.6 29577.1 moveto
38884.6 30364.5 lineto
stroke
newpath
38884.6 30252 moveto
38940.8 30308.2 lineto
39053.3 30364.5 lineto
39222 30364.5 lineto
39334.5 30308.2 lineto
39390.7 30195.7 lineto
39390.7 29577.1 lineto
stroke
newpath
39390.7 30195.7 moveto
39447 30308.2 lineto
39559.5 30364.5 lineto
39728.2 30364.5 lineto
39840.7 30308.2 lineto
39896.9 30195.7 lineto
39896.9 29577.1 lineto
stroke
newpath
42202.9 30814.4 moveto
41190.5 29295.8 lineto
stroke
newpath
43721.5 30758.2 moveto
43833.9 30758.2 lineto
43946.4 30701.9 lineto
44002.7 30645.7 lineto
44058.9 30533.2 lineto
44115.2 30308.2 lineto
44115.2 30027 lineto
44058.9 29802 lineto
44002.7 29689.5 lineto
43946.4 29633.3 lineto
43833.9 29577.1 lineto
43721.5 29577.1 lineto
43609 29633.3 lineto
43552.7 29689.5 lineto
43496.5 29802 lineto
43440.2 30027 lineto
43440.2 30308.2 lineto
43496.5 30533.2 lineto
43552.7 30645.7 lineto
43609 30701.9 lineto
43721.5 30758.2 lineto
stroke
newpath
44621.3 29689.5 moveto
44677.6 29633.3 lineto
44621.3 29577.1 lineto
44565.1 29633.3 lineto
44621.3 29689.5 lineto
44621.3 29577.1 lineto
stroke
newpath
45408.7 30758.2 moveto
45521.2 30758.2 lineto
45633.7 30701.9 lineto
45690 30645.7 lineto
45746.2 30533.2 lineto
45802.4 30308.2 lineto
45802.4 30027 lineto
45746.2 29802 lineto
45690 29689.5 lineto
45633.7 29633.3 lineto
45521.2 29577.1 lineto
45408.7 29577.1 lineto
45296.3 29633.3 lineto
45240 29689.5 lineto
45183.8 29802 lineto
45127.5 30027 lineto
45127.5 30308.2 lineto
45183.8 30533.2 lineto
45240 30645.7 lineto
45296.3 30701.9 lineto
45408.7 30758.2 lineto
stroke
newpath
46814.8 30364.5 moveto
46814.8 29577.1 lineto
stroke
newpath
46533.6 30814.4 moveto
46252.4 29970.8 lineto
46983.5 29970.8 lineto
stroke
newpath
47658.5 30758.2 moveto
47770.9 30758.2 lineto
47883.4 30701.9 lineto
47939.7 30645.7 lineto
47995.9 30533.2 lineto
48052.2 30308.2 lineto
48052.2 30027 lineto
47995.9 29802 lineto
47939.7 29689.5 lineto
47883.4 29633.3 lineto
47770.9 29577.1 lineto
47658.5 29577.1 lineto
47546 29633.3 lineto
47489.7 29689.5 lineto
47433.5 29802 lineto
47377.2 30027 lineto
47377.2 30308.2 lineto
47433.5 30533.2 lineto
47489.7 30645.7 lineto
47546 30701.9 lineto
47658.5 30758.2 lineto
stroke
newpath
48502.1 30758.2 moveto
48502.1 30533.2 lineto
stroke
newpath
48952 30758.2 moveto
48952 30533.2 lineto
stroke
newpath
50695.6 29127.1 moveto
50639.3 29183.4 lineto
50526.9 29352.1 lineto
50470.6 29464.6 lineto
50414.4 29633.3 lineto
50358.1 29914.5 lineto
50358.1 30139.5 lineto
50414.4 30420.7 lineto
50470.6 30589.4 lineto
50526.9 30701.9 lineto
50639.3 30870.7 lineto
50695.6 30926.9 lineto
stroke
newpath
51651.7 30364.5 moveto
51651.7 29577.1 lineto
stroke
newpath
51370.5 30814.4 moveto
51089.3 29970.8 lineto
51820.4 29970.8 lineto
stroke
newpath
52832.8 30758.2 moveto
52270.4 30758.2 lineto
52214.1 30195.7 lineto
52270.4 30252 lineto
52382.9 30308.2 lineto
52664.1 30308.2 lineto
52776.6 30252 lineto
52832.8 30195.7 lineto
52889.1 30083.3 lineto
52889.1 29802 lineto
52832.8 29689.5 lineto
52776.6 29633.3 lineto
52664.1 29577.1 lineto
52382.9 29577.1 lineto
52270.4 29633.3 lineto
52214.1 29689.5 lineto
stroke
newpath
54295.1 29577.1 moveto
54295.1 30758.2 lineto
stroke
newpath
54801.3 29577.1 moveto
54801.3 30195.7 lineto
54745.1 30308.2 lineto
54632.6 30364.5 lineto
54463.9 30364.5 lineto
54351.4 30308.2 lineto
54295.1 30252 lineto
stroke
newpath
55532.5 29577.1 moveto
55420 29633.3 lineto
55363.7 29689.5 lineto
55307.5 29802 lineto
55307.5 30139.5 lineto
55363.7 30252 lineto
55420 30308.2 lineto
55532.5 30364.5 lineto
55701.2 30364.5 lineto
55813.7 30308.2 lineto
55869.9 30252 lineto
55926.2 30139.5 lineto
55926.2 29802 lineto
55869.9 29689.5 lineto
55813.7 29633.3 lineto
55701.2 29577.1 lineto
55532.5 29577.1 lineto
stroke
newpath
56601.1 29577.1 moveto
56488.6 29633.3 lineto
56432.4 29745.8 lineto
56432.4 30758.2 lineto
stroke
newpath
57501 29633.3 moveto
57388.5 29577.1 lineto
57163.5 29577.1 lineto
57051 29633.3 lineto
56994.8 29745.8 lineto
56994.8 30195.7 lineto
57051 30308.2 lineto
57163.5 30364.5 lineto
57388.5 30364.5 lineto
57501 30308.2 lineto
57557.2 30195.7 lineto
57557.2 30083.3 lineto
56994.8 29970.8 lineto
stroke
newpath
58007.2 29633.3 moveto
58119.7 29577.1 lineto
58344.6 29577.1 lineto
58457.1 29633.3 lineto
58513.4 29745.8 lineto
58513.4 29802 lineto
58457.1 29914.5 lineto
58344.6 29970.8 lineto
58175.9 29970.8 lineto
58063.4 30027 lineto
58007.2 30139.5 lineto
58007.2 30195.7 lineto
58063.4 30308.2 lineto
58175.9 30364.5 lineto
58344.6 30364.5 lineto
58457.1 30308.2 lineto
stroke
newpath
58907.1 29127.1 moveto
58963.3 29183.4 lineto
59075.8 29352.1 lineto
59132 29464.6 lineto
59188.3 29633.3 lineto
59244.5 29914.5 lineto
59244.5 30139.5 lineto
59188.3 30420.7 lineto
59132 30589.4 lineto
59075.8 30701.9 lineto
58963.3 30870.7 lineto
58907.1 30926.9 lineto
stroke
newpath
31986.1 27784.4 moveto
31986.1 29320.2 lineto
30450.3 29320.2 lineto
30450.3 27784.4 lineto
31986.1 27784.4 lineto
poly0
newpath
33260.3 29199.1 moveto
33991.4 29199.1 lineto
33597.7 28749.2 lineto
33766.4 28749.2 lineto
33878.9 28692.9 lineto
33935.2 28636.7 lineto
33991.4 28524.2 lineto
33991.4 28243 lineto
33935.2 28130.5 lineto
33878.9 28074.3 lineto
33766.4 28018 lineto
33429 28018 lineto
33316.5 28074.3 lineto
33260.3 28130.5 lineto
stroke
newpath
34497.6 28130.5 moveto
34553.8 28074.3 lineto
34497.6 28018 lineto
34441.4 28074.3 lineto
34497.6 28130.5 lineto
34497.6 28018 lineto
stroke
newpath
35285 29199.1 moveto
35397.5 29199.1 lineto
35510 29142.9 lineto
35566.2 29086.6 lineto
35622.5 28974.1 lineto
35678.7 28749.2 lineto
35678.7 28468 lineto
35622.5 28243 lineto
35566.2 28130.5 lineto
35510 28074.3 lineto
35397.5 28018 lineto
35285 28018 lineto
35172.5 28074.3 lineto
35116.3 28130.5 lineto
35060 28243 lineto
35003.8 28468 lineto
35003.8 28749.2 lineto
35060 28974.1 lineto
35116.3 29086.6 lineto
35172.5 29142.9 lineto
35285 29199.1 lineto
stroke
newpath
36747.3 29199.1 moveto
36184.9 29199.1 lineto
36128.6 28636.7 lineto
36184.9 28692.9 lineto
36297.4 28749.2 lineto
36578.6 28749.2 lineto
36691.1 28692.9 lineto
36747.3 28636.7 lineto
36803.6 28524.2 lineto
36803.6 28243 lineto
36747.3 28130.5 lineto
36691.1 28074.3 lineto
36578.6 28018 lineto
36297.4 28018 lineto
36184.9 28074.3 lineto
36128.6 28130.5 lineto
stroke
newpath
37309.8 28018 moveto
37309.8 28805.4 lineto
stroke
newpath
37309.8 28692.9 moveto
37366 28749.2 lineto
37478.5 28805.4 lineto
37647.2 28805.4 lineto
37759.7 28749.2 lineto
37815.9 28636.7 lineto
37815.9 28018 lineto
stroke
newpath
37815.9 28636.7 moveto
37872.2 28749.2 lineto
37984.7 28805.4 lineto
38153.4 28805.4 lineto
38265.9 28749.2 lineto
38322.1 28636.7 lineto
38322.1 28018 lineto
stroke
newpath
38884.6 28018 moveto
38884.6 28805.4 lineto
stroke
newpath
38884.6 28692.9 moveto
38940.8 28749.2 lineto
39053.3 28805.4 lineto
39222 28805.4 lineto
39334.5 28749.2 lineto
39390.7 28636.7 lineto
39390.7 28018 lineto
stroke
newpath
39390.7 28636.7 moveto
39447 28749.2 lineto
39559.5 28805.4 lineto
39728.2 28805.4 lineto
39840.7 28749.2 lineto
39896.9 28636.7 lineto
39896.9 28018 lineto
stroke
newpath
42202.9 29255.4 moveto
41190.5 27736.8 lineto
stroke
newpath
43721.5 29199.1 moveto
43833.9 29199.1 lineto
43946.4 29142.9 lineto
44002.7 29086.6 lineto
44058.9 28974.1 lineto
44115.2 28749.2 lineto
44115.2 28468 lineto
44058.9 28243 lineto
44002.7 28130.5 lineto
43946.4 28074.3 lineto
43833.9 28018 lineto
43721.5 28018 lineto
43609 28074.3 lineto
43552.7 28130.5 lineto
43496.5 28243 lineto
43440.2 28468 lineto
43440.2 28749.2 lineto
43496.5 28974.1 lineto
43552.7 29086.6 lineto
43609 29142.9 lineto
43721.5 29199.1 lineto
stroke
newpath
44621.3 28130.5 moveto
44677.6 28074.3 lineto
44621.3 28018 lineto
44565.1 28074.3 lineto
44621.3 28130.5 lineto
44621.3 28018 lineto
stroke
newpath
45802.4 28018 moveto
45127.5 28018 lineto
stroke
newpath
45465 28018 moveto
45465 29199.1 lineto
45352.5 29030.4 lineto
45240 28917.9 lineto
45127.5 28861.7 lineto
stroke
newpath
46252.4 29086.6 moveto
46308.6 29142.9 lineto
46421.1 29199.1 lineto
46702.3 29199.1 lineto
46814.8 29142.9 lineto
46871.1 29086.6 lineto
46927.3 28974.1 lineto
46927.3 28861.7 lineto
46871.1 28692.9 lineto
46196.1 28018 lineto
46927.3 28018 lineto
stroke
newpath
47658.5 29199.1 moveto
47770.9 29199.1 lineto
47883.4 29142.9 lineto
47939.7 29086.6 lineto
47995.9 28974.1 lineto
48052.2 28749.2 lineto
48052.2 28468 lineto
47995.9 28243 lineto
47939.7 28130.5 lineto
47883.4 28074.3 lineto
47770.9 28018 lineto
47658.5 28018 lineto
47546 28074.3 lineto
47489.7 28130.5 lineto
47433.5 28243 lineto
47377.2 28468 lineto
47377.2 28749.2 lineto
47433.5 28974.1 lineto
47489.7 29086.6 lineto
47546 29142.9 lineto
47658.5 29199.1 lineto
stroke
newpath
48502.1 29199.1 moveto
48502.1 28974.1 lineto
stroke
newpath
48952 29199.1 moveto
48952 28974.1 lineto
stroke
newpath
50695.6 27568.1 moveto
50639.3 27624.3 lineto
50526.9 27793 lineto
50470.6 27905.5 lineto
50414.4 28074.3 lineto
50358.1 28355.5 lineto
50358.1 28580.4 lineto
50414.4 28861.7 lineto
50470.6 29030.4 lineto
50526.9 29142.9 lineto
50639.3 29311.6 lineto
50695.6 29367.8 lineto
stroke
newpath
51651.7 29199.1 moveto
51426.7 29199.1 lineto
51314.3 29142.9 lineto
51258 29086.6 lineto
51145.5 28917.9 lineto
51089.3 28692.9 lineto
51089.3 28243 lineto
51145.5 28130.5 lineto
51201.8 28074.3 lineto
51314.3 28018 lineto
51539.2 28018 lineto
51651.7 28074.3 lineto
51708 28130.5 lineto
51764.2 28243 lineto
51764.2 28524.2 lineto
51708 28636.7 lineto
51651.7 28692.9 lineto
51539.2 28749.2 lineto
51314.3 28749.2 lineto
51201.8 28692.9 lineto
51145.5 28636.7 lineto
51089.3 28524.2 lineto
stroke
newpath
53170.3 28018 moveto
53170.3 29199.1 lineto
stroke
newpath
53676.5 28018 moveto
53676.5 28636.7 lineto
53620.2 28749.2 lineto
53507.7 28805.4 lineto
53339 28805.4 lineto
53226.5 28749.2 lineto
53170.3 28692.9 lineto
stroke
newpath
54407.6 28018 moveto
54295.1 28074.3 lineto
54238.9 28130.5 lineto
54182.6 28243 lineto
54182.6 28580.4 lineto
54238.9 28692.9 lineto
54295.1 28749.2 lineto
54407.6 28805.4 lineto
54576.3 28805.4 lineto
54688.8 28749.2 lineto
54745.1 28692.9 lineto
54801.3 28580.4 lineto
54801.3 28243 lineto
54745.1 28130.5 lineto
54688.8 28074.3 lineto
54576.3 28018 lineto
54407.6 28018 lineto
stroke
newpath
55476.2 28018 moveto
55363.7 28074.3 lineto
55307.5 28186.7 lineto
55307.5 29199.1 lineto
stroke
newpath
56376.1 28074.3 moveto
56263.6 28018 lineto
56038.7 28018 lineto
55926.2 28074.3 lineto
55869.9 28186.7 lineto
55869.9 28636.7 lineto
55926.2 28749.2 lineto
56038.7 28805.4 lineto
56263.6 28805.4 lineto
56376.1 28749.2 lineto
56432.4 28636.7 lineto
56432.4 28524.2 lineto
55869.9 28411.7 lineto
stroke
newpath
56882.3 28074.3 moveto
56994.8 28018 lineto
57219.8 28018 lineto
57332.3 28074.3 lineto
57388.5 28186.7 lineto
57388.5 28243 lineto
57332.3 28355.5 lineto
57219.8 28411.7 lineto
57051 28411.7 lineto
56938.5 28468 lineto
56882.3 28580.4 lineto
56882.3 28636.7 lineto
56938.5 28749.2 lineto
57051 28805.4 lineto
57219.8 28805.4 lineto
57332.3 28749.2 lineto
stroke
newpath
57782.2 27568.1 moveto
57838.4 27624.3 lineto
57950.9 27793 lineto
58007.2 27905.5 lineto
58063.4 28074.3 lineto
58119.7 28355.5 lineto
58119.7 28580.4 lineto
58063.4 28861.7 lineto
58007.2 29030.4 lineto
57950.9 29142.9 lineto
57838.4 29311.6 lineto
57782.2 29367.8 lineto
stroke
showpage
grestore
%%EOF
