M48
;DRILL file {KiCad 4.0.5+dfsg1-4} date Tue Aug 20 22:19:34 2019
;FORMAT={-:-/ absolute / metric / decimal}
FMAT,2
METRIC,TZ
T1C0.400
T2C0.800
T3C1.016
T4C3.048
%
G90
G05
M71
T1
X60.96Y-120.015
X63.5Y-120.777
X66.04Y-81.28
X66.04Y-88.265
X66.04Y-94.742
X66.04Y-106.553
X66.04Y-112.014
X66.04Y-118.745
X67.31Y-100.711
X67.31Y-104.267
X67.691Y-96.012
X67.691Y-98.552
X67.945Y-101.346
X67.945Y-107.823
X68.58Y-101.981
X68.58Y-109.855
X69.215Y-102.616
X69.215Y-113.665
X69.85Y-103.251
X69.85Y-115.316
X70.612Y-114.681
X70.612Y-116.459
X74.93Y-97.917
X74.93Y-105.156
X82.677Y-74.93
X82.677Y-81.28
X82.677Y-88.265
X82.677Y-89.789
X82.677Y-94.742
X82.677Y-106.553
X82.677Y-107.188
X82.677Y-112.014
X82.677Y-118.745
X82.677Y-124.206
X83.439Y-84.582
X84.074Y-85.344
X84.455Y-91.44
X85.09Y-92.075
X85.598Y-127.
X85.725Y-96.52
X85.725Y-99.187
X86.233Y-124.46
X86.36Y-93.98
X86.36Y-99.822
X86.868Y-121.92
X86.995Y-91.44
X86.995Y-100.457
X87.63Y-88.9
X87.63Y-101.219
X87.63Y-119.38
X88.265Y-86.36
X88.265Y-101.854
X88.265Y-109.093
X88.265Y-116.84
X88.9Y-83.82
X88.9Y-102.489
X88.9Y-109.728
X88.9Y-114.3
X89.535Y-81.28
X89.535Y-103.124
X89.535Y-111.76
X89.535Y-121.158
X90.17Y-78.74
X90.17Y-103.759
X90.17Y-109.22
X90.17Y-122.555
X96.52Y-118.237
X96.52Y-127.
X97.155Y-97.79
X97.155Y-124.46
X97.79Y-121.92
X97.79Y-123.19
X98.425Y-110.49
X98.425Y-119.38
X98.806Y-76.454
X98.806Y-106.68
X99.06Y-111.76
X99.06Y-115.57
X99.695Y-102.87
X99.695Y-104.14
X100.33Y-92.71
X100.33Y-116.84
X103.124Y-85.852
X103.124Y-114.3
X103.886Y-105.41
X103.886Y-109.22
X104.648Y-107.95
X104.648Y-116.84
X110.998Y-93.98
X110.998Y-105.41
X111.633Y-96.52
X111.633Y-107.95
X112.522Y-87.249
X112.522Y-93.98
X112.522Y-99.06
X112.522Y-74.93
X113.665Y-116.84
X113.665Y-124.46
X114.3Y-73.914
X114.3Y-84.074
X114.3Y-101.6
X114.3Y-96.52
X115.57Y-76.454
X116.967Y-119.38
X118.872Y-121.92
T2
X92.71Y-78.74
X92.71Y-81.28
X92.71Y-83.82
X92.71Y-86.36
X92.71Y-88.9
X92.71Y-91.44
X92.71Y-93.98
X92.71Y-96.52
X92.71Y-99.06
X92.71Y-101.6
X92.71Y-104.14
X92.71Y-106.68
X92.71Y-109.22
X92.71Y-111.76
X92.71Y-114.3
X92.71Y-116.84
X92.71Y-119.38
X92.71Y-121.92
X92.71Y-124.46
X92.71Y-127.
X107.95Y-78.74
X107.95Y-81.28
X107.95Y-83.82
X107.95Y-86.36
X107.95Y-88.9
X107.95Y-91.44
X107.95Y-93.98
X107.95Y-96.52
X107.95Y-99.06
X107.95Y-101.6
X107.95Y-104.14
X107.95Y-106.68
X107.95Y-109.22
X107.95Y-111.76
X107.95Y-114.3
X107.95Y-116.84
X107.95Y-119.38
X107.95Y-121.92
X107.95Y-124.46
X107.95Y-127.
T3
X60.96Y-86.36
X60.96Y-89.154
X60.96Y-91.897
X60.96Y-94.59
X60.96Y-97.434
X60.96Y-100.178
X60.96Y-102.921
X60.96Y-105.715
X60.96Y-108.458
X60.96Y-111.201
X60.96Y-113.995
X60.96Y-116.535
X63.5Y-84.963
X63.5Y-87.757
X63.5Y-90.551
X63.5Y-93.218
X63.5Y-96.012
X63.5Y-98.806
X63.5Y-101.6
X63.5Y-104.267
X63.5Y-107.061
X63.5Y-109.855
X63.5Y-112.649
X63.5Y-115.316
X63.5Y-118.11
X118.872Y-91.44
X118.872Y-93.98
X118.872Y-96.52
X118.872Y-99.06
X118.872Y-101.6
X118.872Y-104.14
X118.872Y-106.68
X118.872Y-109.22
X118.872Y-111.76
X118.872Y-114.3
X121.412Y-91.44
X121.412Y-93.98
X121.412Y-96.52
X121.412Y-99.06
X121.412Y-101.6
X121.412Y-104.14
X121.412Y-106.68
X121.412Y-109.22
X121.412Y-111.76
X121.412Y-114.3
T4
X60.96Y-78.105
X60.96Y-125.095
X68.58Y-76.2
X68.58Y-127.
X119.38Y-76.2
X119.38Y-127.
T0
M30
